EESchema Schematic File Version 2
LIBS:conn-3
LIBS:power
LIBS:device
LIBS:transistors
LIBS:conn
LIBS:linear
LIBS:regul
LIBS:74xx
LIBS:cmos4000
LIBS:adc-dac
LIBS:memory
LIBS:xilinx
LIBS:microcontrollers
LIBS:dsp
LIBS:microchip
LIBS:analog_switches
LIBS:motorola
LIBS:texas
LIBS:intel
LIBS:audio
LIBS:interface
LIBS:digital-audio
LIBS:philips
LIBS:display
LIBS:cypress
LIBS:siliconi
LIBS:opto
LIBS:atmel
LIBS:contrib
LIBS:valves
LIBS:3615_KicadLibrary
LIBS:PCB_EMI_Wallet-cache
EELAYER 25 0
EELAYER END
$Descr A4 11693 8268
encoding utf-8
Sheet 1 1
Title ""
Date ""
Rev ""
Comp ""
Comment1 ""
Comment2 ""
Comment3 ""
Comment4 ""
$EndDescr
$Comp
L WeMos_mini U1
U 1 1 5B60613D
P 4650 4250
F 0 "U1" H 4650 4750 60  0000 C CNN
F 1 "WeMos_mini" H 4650 3750 60  0000 C CNN
F 2 "3615_footprints:D1_mini_board" H 5200 3550 60  0001 C CNN
F 3 "" H 5200 3550 60  0000 C CNN
	1    4650 4250
	0    -1   -1   0   
$EndComp
$Comp
L LED_ARGB D1
U 1 1 5B6066D0
P 4400 2500
F 0 "D1" H 4400 2870 50  0000 C CNN
F 1 "LED_ARGB" H 4400 2150 50  0000 C CNN
F 2 "LEDs:LED_D5.0mm-4" H 4400 2450 50  0001 C CNN
F 3 "" H 4400 2450 50  0001 C CNN
	1    4400 2500
	0    -1   -1   0   
$EndComp
$Comp
L R R1
U 1 1 5B6067D1
P 4200 2850
F 0 "R1" V 4280 2850 50  0000 C CNN
F 1 "R" V 4200 2850 50  0000 C CNN
F 2 "Resistors_THT:R_Axial_DIN0204_L3.6mm_D1.6mm_P2.54mm_Vertical" V 4130 2850 50  0001 C CNN
F 3 "" H 4200 2850 50  0001 C CNN
	1    4200 2850
	1    0    0    -1  
$EndComp
$Comp
L CONN_01X07 P1
U 1 1 5B60683B
P 5750 1850
F 0 "P1" H 5750 2250 50  0000 C CNN
F 1 "CONN_01X07" V 5850 1850 50  0000 C CNN
F 2 "Pin_Headers:Pin_Header_Straight_1x07_Pitch2.54mm" H 5750 1850 50  0001 C CNN
F 3 "" H 5750 1850 50  0000 C CNN
	1    5750 1850
	0    -1   -1   0   
$EndComp
$Comp
L R R2
U 1 1 5B606A0A
P 4400 2850
F 0 "R2" V 4480 2850 50  0000 C CNN
F 1 "R" V 4400 2850 50  0000 C CNN
F 2 "Resistors_THT:R_Axial_DIN0204_L3.6mm_D1.6mm_P2.54mm_Vertical" V 4330 2850 50  0001 C CNN
F 3 "" H 4400 2850 50  0001 C CNN
	1    4400 2850
	1    0    0    -1  
$EndComp
$Comp
L R R3
U 1 1 5B606A2C
P 4600 2850
F 0 "R3" V 4680 2850 50  0000 C CNN
F 1 "R" V 4600 2850 50  0000 C CNN
F 2 "Resistors_THT:R_Axial_DIN0204_L3.6mm_D1.6mm_P2.54mm_Vertical" V 4530 2850 50  0001 C CNN
F 3 "" H 4600 2850 50  0001 C CNN
	1    4600 2850
	1    0    0    -1  
$EndComp
$Comp
L CONN-3 J1
U 1 1 5B606BA8
P 3850 3150
F 0 "J1" H 4075 3200 50  0000 L CNN
F 1 "CONN-3" H 4075 3100 50  0000 L CNN
F 2 "Pin_Headers:Pin_Header_Straight_1x03_Pitch2.54mm" H 3950 3000 60  0001 C CNN
F 3 "" H 3950 3000 60  0000 C CNN
	1    3850 3150
	0    -1   -1   0   
$EndComp
$Comp
L MEASUREMENT_POINT_Round_RevE_Date15jun2010 MP4
U 1 1 5B607214
P 6400 4250
F 0 "MP4" H 6400 4450 50  0000 C CNN
F 1 "MP_ResistorDummy" H 6400 4150 50  0000 C CNN
F 2 "Connectors:Pin_d0.7mm_L6.5mm_W1.8mm_FlatFork" H 6400 4250 50  0001 C CNN
F 3 "" H 6400 4250 50  0000 C CNN
	1    6400 4250
	0    -1   -1   0   
$EndComp
$Comp
L MEASUREMENT_POINT_Round_RevE_Date15jun2010 MP3
U 1 1 5B60724D
P 6400 4100
F 0 "MP3" H 6400 4300 50  0000 C CNN
F 1 "MP_ResistorDummy" H 6400 4000 50  0000 C CNN
F 2 "Connectors:Pin_d0.7mm_L6.5mm_W1.8mm_FlatFork" H 6400 4100 50  0001 C CNN
F 3 "" H 6400 4100 50  0000 C CNN
	1    6400 4100
	0    -1   -1   0   
$EndComp
Connection ~ 6400 4250
Connection ~ 6400 4100
$Comp
L MEASUREMENT_POINT_Round_RevE_Date15jun2010 MP7
U 1 1 5B6075BE
P 5450 2250
F 0 "MP7" H 5450 2450 50  0000 C CNN
F 1 "MP_ResistorDummy" H 5450 2150 50  0000 C CNN
F 2 "Connectors:Pin_d0.7mm_L6.5mm_W1.8mm_FlatFork" H 5450 2250 50  0001 C CNN
F 3 "" H 5450 2250 50  0000 C CNN
	1    5450 2250
	0    -1   -1   0   
$EndComp
$Comp
L MEASUREMENT_POINT_Round_RevE_Date15jun2010 MP8
U 1 1 5B607619
P 5450 2350
F 0 "MP8" H 5450 2550 50  0000 C CNN
F 1 "MP_ResistorDummy" H 5450 2250 50  0000 C CNN
F 2 "Connectors:Pin_d0.7mm_L6.5mm_W1.8mm_FlatFork" H 5450 2350 50  0001 C CNN
F 3 "" H 5450 2350 50  0000 C CNN
	1    5450 2350
	0    -1   -1   0   
$EndComp
$Comp
L MEASUREMENT_POINT_Round_RevE_Date15jun2010 MP9
U 1 1 5B60765A
P 5550 2600
F 0 "MP9" H 5550 2800 50  0000 C CNN
F 1 "MP_ResistorDummy" H 5550 2500 50  0000 C CNN
F 2 "Connectors:Pin_d0.7mm_L6.5mm_W1.8mm_FlatFork" H 5550 2600 50  0001 C CNN
F 3 "" H 5550 2600 50  0000 C CNN
	1    5550 2600
	0    -1   -1   0   
$EndComp
$Comp
L MEASUREMENT_POINT_Round_RevE_Date15jun2010 MP10
U 1 1 5B6076A4
P 5550 2700
F 0 "MP10" H 5550 2900 50  0000 C CNN
F 1 "MP_ResistorDummy" H 5550 2600 50  0000 C CNN
F 2 "Connectors:Pin_d0.7mm_L6.5mm_W1.8mm_FlatFork" H 5550 2700 50  0001 C CNN
F 3 "" H 5550 2700 50  0000 C CNN
	1    5550 2700
	0    -1   -1   0   
$EndComp
$Comp
L MEASUREMENT_POINT_Round_RevE_Date15jun2010 MP11
U 1 1 5B6076EB
P 5650 2200
F 0 "MP11" H 5650 2400 50  0000 C CNN
F 1 "MP_ResistorDummy" H 5650 2100 50  0000 C CNN
F 2 "Connectors:Pin_d0.7mm_L6.5mm_W1.8mm_FlatFork" H 5650 2200 50  0001 C CNN
F 3 "" H 5650 2200 50  0000 C CNN
	1    5650 2200
	0    -1   -1   0   
$EndComp
$Comp
L MEASUREMENT_POINT_Round_RevE_Date15jun2010 MP12
U 1 1 5B607747
P 5650 2300
F 0 "MP12" H 5650 2500 50  0000 C CNN
F 1 "MP_ResistorDummy" H 5650 2200 50  0000 C CNN
F 2 "Connectors:Pin_d0.7mm_L6.5mm_W1.8mm_FlatFork" H 5650 2300 50  0001 C CNN
F 3 "" H 5650 2300 50  0000 C CNN
	1    5650 2300
	0    -1   -1   0   
$EndComp
$Comp
L MEASUREMENT_POINT_Round_RevE_Date15jun2010 MP14
U 1 1 5B6077EB
P 5750 2250
F 0 "MP14" H 5750 2450 50  0000 C CNN
F 1 "MP_ResistorDummy" H 5750 2150 50  0000 C CNN
F 2 "Connectors:Pin_d0.7mm_L6.5mm_W1.8mm_FlatFork" H 5750 2250 50  0001 C CNN
F 3 "" H 5750 2250 50  0000 C CNN
	1    5750 2250
	0    -1   -1   0   
$EndComp
Connection ~ 5450 2350
Connection ~ 5450 2250
Connection ~ 5550 2600
Connection ~ 5550 2700
Connection ~ 5650 2300
Connection ~ 5650 2200
Connection ~ 5750 2150
Connection ~ 5750 2250
$Comp
L MOUNTING-HOLE M1
U 1 1 5B608AF7
P 2700 2100
F 0 "M1" H 2800 2100 40  0001 C CNN
F 1 "MOUNTING-HOLE" H 2700 2000 40  0001 C CNN
F 2 "Connectors:1pin" H 2700 1850 60  0001 C CNN
F 3 "" H 2700 1850 60  0000 C CNN
	1    2700 2100
	1    0    0    -1  
$EndComp
$Comp
L MOUNTING-HOLE M2
U 1 1 5B608B60
P 6650 4950
F 0 "M2" H 6750 4950 40  0001 C CNN
F 1 "MOUNTING-HOLE" H 6650 4850 40  0001 C CNN
F 2 "Connectors:1pin" H 6650 4700 60  0001 C CNN
F 3 "" H 6650 4700 60  0000 C CNN
	1    6650 4950
	1    0    0    -1  
$EndComp
$Comp
L MEASUREMENT_POINT_Round_RevE_Date15jun2010 MP13
U 1 1 5B608EA1
P 5750 2150
F 0 "MP13" H 5750 2350 50  0000 C CNN
F 1 "MP_ResistorDummy" H 5750 2050 50  0000 C CNN
F 2 "Connectors:Pin_d0.7mm_L6.5mm_W1.8mm_FlatFork" H 5750 2150 50  0001 C CNN
F 3 "" H 5750 2150 50  0000 C CNN
	1    5750 2150
	0    -1   -1   0   
$EndComp
$Comp
L GND #PWR01
U 1 1 5B609937
P 8300 2800
F 0 "#PWR01" H 8300 2550 50  0001 C CNN
F 1 "GND" H 8300 2650 50  0000 C CNN
F 2 "" H 8300 2800 50  0001 C CNN
F 3 "" H 8300 2800 50  0001 C CNN
	1    8300 2800
	1    0    0    -1  
$EndComp
$Comp
L +5V #PWR02
U 1 1 5B609990
P 8300 2700
F 0 "#PWR02" H 8300 2550 50  0001 C CNN
F 1 "+5V" H 8300 2840 50  0000 C CNN
F 2 "" H 8300 2700 50  0001 C CNN
F 3 "" H 8300 2700 50  0001 C CNN
	1    8300 2700
	1    0    0    -1  
$EndComp
$Comp
L Conn_01x02 J2
U 1 1 5B609A17
P 8500 2700
F 0 "J2" H 8500 2800 50  0000 C CNN
F 1 "Conn_01x02" H 8500 2500 50  0000 C CNN
F 2 "Pin_Headers:Pin_Header_Straight_2x01_Pitch2.54mm" H 8500 2700 50  0001 C CNN
F 3 "" H 8500 2700 50  0001 C CNN
	1    8500 2700
	1    0    0    -1  
$EndComp
$Comp
L +5V #PWR03
U 1 1 5B609C41
P 3100 4950
F 0 "#PWR03" H 3100 4800 50  0001 C CNN
F 1 "+5V" H 3100 5090 50  0000 C CNN
F 2 "" H 3100 4950 50  0001 C CNN
F 3 "" H 3100 4950 50  0001 C CNN
	1    3100 4950
	1    0    0    -1  
$EndComp
$Comp
L GND #PWR04
U 1 1 5B609C91
P 3000 5100
F 0 "#PWR04" H 3000 4850 50  0001 C CNN
F 1 "GND" H 3000 4950 50  0000 C CNN
F 2 "" H 3000 5100 50  0001 C CNN
F 3 "" H 3000 5100 50  0001 C CNN
	1    3000 5100
	1    0    0    -1  
$EndComp
Wire Wire Line
	4300 4800 4300 4750
Wire Wire Line
	3000 5100 4400 5100
Wire Wire Line
	4400 5100 4400 4750
NoConn ~ 5000 3750
NoConn ~ 5000 4750
NoConn ~ 4900 4750
Wire Wire Line
	3750 3150 3750 4900
Connection ~ 3750 4800
Wire Wire Line
	3850 3150 3850 5100
Connection ~ 3850 5100
Wire Wire Line
	3950 3150 3950 3750
Wire Wire Line
	3950 3750 4300 3750
Wire Wire Line
	4200 3000 4200 3300
Wire Wire Line
	4200 3300 4400 3300
Wire Wire Line
	4400 3300 4400 3750
Wire Wire Line
	4400 3000 4400 3200
Wire Wire Line
	4400 3200 4500 3200
Wire Wire Line
	4500 3200 4500 3750
Wire Wire Line
	4600 3000 4600 3750
Wire Wire Line
	5450 2050 5450 3450
Wire Wire Line
	5450 3450 4700 3450
Wire Wire Line
	4700 3450 4700 3750
Wire Wire Line
	5550 2050 5550 3500
Wire Wire Line
	5550 3500 4800 3500
Wire Wire Line
	4800 3500 4800 3750
Wire Wire Line
	5650 2050 5650 3550
Wire Wire Line
	5650 3550 4900 3550
Wire Wire Line
	4900 3550 4900 3750
Wire Wire Line
	5750 2050 5750 3900
Wire Wire Line
	5750 3900 5800 3900
Wire Wire Line
	5800 3900 5800 4950
Wire Wire Line
	5800 4950 4500 4950
Wire Wire Line
	4500 4950 4500 4750
Wire Wire Line
	5850 2050 5850 3850
Wire Wire Line
	5850 3850 6400 3850
Wire Wire Line
	6400 3850 6400 5050
Wire Wire Line
	6400 5050 4600 5050
Wire Wire Line
	4600 5050 4600 4750
Wire Wire Line
	5950 2050 5950 5150
Wire Wire Line
	5950 5150 4700 5150
Wire Wire Line
	4700 5150 4700 4750
Wire Wire Line
	6050 2050 6050 5250
Wire Wire Line
	6050 5250 4800 5250
Wire Wire Line
	4800 5250 4800 4750
Wire Wire Line
	4400 2300 4400 1800
Wire Wire Line
	4400 1800 3400 1800
Wire Wire Line
	3400 1800 3400 1900
$Comp
L GND #PWR05
U 1 1 5B60C544
P 3400 1900
F 0 "#PWR05" H 3400 1650 50  0001 C CNN
F 1 "GND" H 3400 1750 50  0000 C CNN
F 2 "" H 3400 1900 50  0001 C CNN
F 3 "" H 3400 1900 50  0001 C CNN
	1    3400 1900
	1    0    0    -1  
$EndComp
$Comp
L SWITCH U2
U 1 1 5B6186D9
P 3800 4700
F 0 "U2" H 3800 4700 60  0000 C CNN
F 1 "SWITCH" H 3800 4700 60  0000 C CNN
F 2 "3615_footprints:REED-SPDT-MK23-90-E-2" H 3800 4700 60  0001 C CNN
F 3 "" H 3800 4700 60  0001 C CNN
	1    3800 4700
	0    1    1    0   
$EndComp
Wire Wire Line
	3450 4800 3450 4950
Wire Wire Line
	3450 4950 3100 4950
Wire Wire Line
	3750 4800 4300 4800
Wire Wire Line
	3750 4900 3300 4900
Wire Wire Line
	3300 4900 3300 4800
NoConn ~ 3600 4800
$EndSCHEMATC
