G04 #@! TF.FileFunction,Copper,L2,Bot,Signal*
%FSLAX46Y46*%
G04 Gerber Fmt 4.6, Leading zero omitted, Abs format (unit mm)*
G04 Created by KiCad (PCBNEW 4.0.7) date Tuesday 31 July 2018 18:10:05*
%MOMM*%
%LPD*%
G01*
G04 APERTURE LIST*
%ADD10C,0.100000*%
%ADD11C,0.150000*%
%ADD12R,1.070000X1.800000*%
%ADD13O,1.070000X1.800000*%
%ADD14R,1.700000X1.700000*%
%ADD15O,1.700000X1.700000*%
%ADD16C,1.400000*%
%ADD17O,1.400000X1.400000*%
%ADD18R,1.600000X1.600000*%
%ADD19O,1.600000X1.600000*%
%ADD20C,1.800000*%
%ADD21C,3.000000*%
%ADD22C,0.500000*%
%ADD23C,0.254000*%
G04 APERTURE END LIST*
D10*
D11*
X116070400Y-107946800D02*
X116070400Y-66946800D01*
X165070400Y-107946800D02*
X116070400Y-107946800D01*
X165070400Y-66946800D02*
X165070400Y-107946800D01*
X116070400Y-66946800D02*
X165070400Y-66946800D01*
D12*
X134112000Y-72136000D03*
D13*
X135382000Y-72136000D03*
X136652000Y-72136000D03*
X137922000Y-72136000D03*
D14*
X125476000Y-74676000D03*
D15*
X128016000Y-74676000D03*
X130556000Y-74676000D03*
D14*
X144780000Y-72136000D03*
D15*
X147320000Y-72136000D03*
X149860000Y-72136000D03*
X152400000Y-72136000D03*
X154940000Y-72136000D03*
X157480000Y-72136000D03*
X160020000Y-72136000D03*
D16*
X135636000Y-74676000D03*
D17*
X135636000Y-77216000D03*
D16*
X138176000Y-74676000D03*
D17*
X138176000Y-77216000D03*
D16*
X140716000Y-74676000D03*
D17*
X140716000Y-77216000D03*
D18*
X121920000Y-94488000D03*
D19*
X121920000Y-102108000D03*
D20*
X150876000Y-80518000D03*
X148336000Y-80518000D03*
X145796000Y-80518000D03*
X143256000Y-80518000D03*
X140716000Y-80518000D03*
X138176000Y-80518000D03*
X135636000Y-80518000D03*
X133096000Y-80518000D03*
X133096000Y-103378000D03*
X135636000Y-103378000D03*
X138176000Y-103378000D03*
X140716000Y-103378000D03*
X143256000Y-103378000D03*
X145796000Y-103378000D03*
X148336000Y-103378000D03*
X150876000Y-103378000D03*
D21*
X161096960Y-104099360D03*
X119748300Y-70586600D03*
D16*
X154940000Y-74676000D03*
X154940000Y-77216000D03*
X144780000Y-74676000D03*
X144780000Y-77216000D03*
X147320000Y-77216000D03*
X147320000Y-74676000D03*
X149860000Y-74676000D03*
X149860000Y-77216000D03*
X152400000Y-77216000D03*
X152400000Y-74676000D03*
D14*
X121920000Y-88900000D03*
D15*
X121920000Y-86360000D03*
D22*
X135382000Y-72136000D02*
X135382000Y-74422000D01*
X135382000Y-74422000D02*
X135636000Y-74676000D01*
X136652000Y-72136000D02*
X136652000Y-73152000D01*
X136652000Y-73152000D02*
X138176000Y-74676000D01*
X137922000Y-72136000D02*
X138176000Y-72136000D01*
X138176000Y-72136000D02*
X140716000Y-74676000D01*
X121920000Y-102108000D02*
X120396000Y-102108000D01*
X118872000Y-81280000D02*
X125476000Y-74676000D01*
X118872000Y-100584000D02*
X118872000Y-81280000D01*
X120396000Y-102108000D02*
X118872000Y-100584000D01*
X121920000Y-102108000D02*
X131826000Y-102108000D01*
X131826000Y-102108000D02*
X133096000Y-103378000D01*
X130556000Y-74676000D02*
X130556000Y-77978000D01*
X130556000Y-77978000D02*
X133096000Y-80518000D01*
X144780000Y-77216000D02*
X144780000Y-78994000D01*
X144780000Y-78994000D02*
X143256000Y-80518000D01*
X144780000Y-74676000D02*
X144780000Y-77216000D01*
X144780000Y-72136000D02*
X144780000Y-74676000D01*
X147320000Y-77216000D02*
X147320000Y-78994000D01*
X147320000Y-78994000D02*
X145796000Y-80518000D01*
X147320000Y-74676000D02*
X147320000Y-77216000D01*
X147320000Y-72136000D02*
X147320000Y-74676000D01*
X149860000Y-77216000D02*
X149860000Y-78994000D01*
X149860000Y-78994000D02*
X148336000Y-80518000D01*
X149860000Y-74676000D02*
X149860000Y-77216000D01*
X149860000Y-72136000D02*
X149860000Y-74676000D01*
X152400000Y-77216000D02*
X152400000Y-89154000D01*
X152400000Y-89154000D02*
X138176000Y-103378000D01*
X152400000Y-77216000D02*
X152400000Y-74676000D01*
X152400000Y-72136000D02*
X152400000Y-74676000D01*
X135636000Y-77216000D02*
X135636000Y-80518000D01*
X138176000Y-77216000D02*
X138176000Y-80518000D01*
X140716000Y-77216000D02*
X140716000Y-80518000D01*
X157480000Y-72136000D02*
X157480000Y-89154000D01*
X157480000Y-89154000D02*
X143256000Y-103378000D01*
X127508000Y-86360000D02*
X127508000Y-75184000D01*
X127508000Y-75184000D02*
X128016000Y-74676000D01*
X121920000Y-86360000D02*
X127508000Y-86360000D01*
X135636000Y-94488000D02*
X135636000Y-103378000D01*
X127508000Y-86360000D02*
X135636000Y-94488000D01*
X121920000Y-88900000D02*
X121920000Y-94488000D01*
X154940000Y-77216000D02*
X154940000Y-89154000D01*
X154940000Y-89154000D02*
X140716000Y-103378000D01*
X154940000Y-74676000D02*
X154940000Y-77216000D01*
X154940000Y-72136000D02*
X154940000Y-74676000D01*
X160020000Y-72136000D02*
X160020000Y-89154000D01*
X160020000Y-89154000D02*
X145796000Y-103378000D01*
D23*
G36*
X163957000Y-107061000D02*
X116967000Y-107061000D01*
X116967000Y-81280000D01*
X117986999Y-81280000D01*
X117987000Y-81280005D01*
X117987000Y-100583995D01*
X117986999Y-100584000D01*
X118020839Y-100754120D01*
X118054367Y-100922675D01*
X118246210Y-101209790D01*
X119770208Y-102733787D01*
X119770210Y-102733790D01*
X120001603Y-102888401D01*
X120057325Y-102925633D01*
X120396000Y-102993000D01*
X120799856Y-102993000D01*
X120905302Y-103150811D01*
X121370849Y-103461880D01*
X121920000Y-103571113D01*
X122469151Y-103461880D01*
X122934698Y-103150811D01*
X123040144Y-102993000D01*
X131459420Y-102993000D01*
X131561247Y-103094826D01*
X131560735Y-103681991D01*
X131793932Y-104246371D01*
X132225357Y-104678551D01*
X132789330Y-104912733D01*
X133399991Y-104913265D01*
X133964371Y-104680068D01*
X134186668Y-104458159D01*
X134735446Y-104458159D01*
X134821852Y-104714643D01*
X135395336Y-104924458D01*
X136005460Y-104898839D01*
X136450148Y-104714643D01*
X136536554Y-104458159D01*
X135636000Y-103557605D01*
X134735446Y-104458159D01*
X134186668Y-104458159D01*
X134396551Y-104248643D01*
X134405203Y-104227806D01*
X134555841Y-104278554D01*
X135456395Y-103378000D01*
X134555841Y-102477446D01*
X134405673Y-102528035D01*
X134398068Y-102509629D01*
X134186650Y-102297841D01*
X134735446Y-102297841D01*
X135636000Y-103198395D01*
X136536554Y-102297841D01*
X136450148Y-102041357D01*
X135876664Y-101831542D01*
X135266540Y-101857161D01*
X134821852Y-102041357D01*
X134735446Y-102297841D01*
X134186650Y-102297841D01*
X133966643Y-102077449D01*
X133402670Y-101843267D01*
X132812332Y-101842753D01*
X132451790Y-101482210D01*
X132331197Y-101401633D01*
X132164675Y-101290367D01*
X132108484Y-101279190D01*
X131826000Y-101222999D01*
X131825995Y-101223000D01*
X123040144Y-101223000D01*
X122934698Y-101065189D01*
X122469151Y-100754120D01*
X121920000Y-100644887D01*
X121370849Y-100754120D01*
X120905302Y-101065189D01*
X120799856Y-101223000D01*
X120762579Y-101223000D01*
X119757000Y-100217420D01*
X119757000Y-88050000D01*
X120422560Y-88050000D01*
X120422560Y-89750000D01*
X120466838Y-89985317D01*
X120605910Y-90201441D01*
X120818110Y-90346431D01*
X121035000Y-90390352D01*
X121035000Y-93056554D01*
X120884683Y-93084838D01*
X120668559Y-93223910D01*
X120523569Y-93436110D01*
X120472560Y-93688000D01*
X120472560Y-95288000D01*
X120516838Y-95523317D01*
X120655910Y-95739441D01*
X120868110Y-95884431D01*
X121120000Y-95935440D01*
X122720000Y-95935440D01*
X122955317Y-95891162D01*
X123171441Y-95752090D01*
X123316431Y-95539890D01*
X123367440Y-95288000D01*
X123367440Y-93688000D01*
X123323162Y-93452683D01*
X123184090Y-93236559D01*
X122971890Y-93091569D01*
X122805000Y-93057773D01*
X122805000Y-90390854D01*
X123005317Y-90353162D01*
X123221441Y-90214090D01*
X123366431Y-90001890D01*
X123417440Y-89750000D01*
X123417440Y-88050000D01*
X123373162Y-87814683D01*
X123234090Y-87598559D01*
X123021890Y-87453569D01*
X122907699Y-87430445D01*
X123115183Y-87241358D01*
X123361486Y-86716892D01*
X123240819Y-86487000D01*
X122047000Y-86487000D01*
X122047000Y-86507000D01*
X121793000Y-86507000D01*
X121793000Y-86487000D01*
X120599181Y-86487000D01*
X120478514Y-86716892D01*
X120724817Y-87241358D01*
X120930504Y-87428808D01*
X120834683Y-87446838D01*
X120618559Y-87585910D01*
X120473569Y-87798110D01*
X120422560Y-88050000D01*
X119757000Y-88050000D01*
X119757000Y-86003108D01*
X120478514Y-86003108D01*
X120599181Y-86233000D01*
X121793000Y-86233000D01*
X121793000Y-85039845D01*
X122047000Y-85039845D01*
X122047000Y-86233000D01*
X123240819Y-86233000D01*
X123361486Y-86003108D01*
X123115183Y-85478642D01*
X122686924Y-85088355D01*
X122276890Y-84918524D01*
X122047000Y-85039845D01*
X121793000Y-85039845D01*
X121563110Y-84918524D01*
X121153076Y-85088355D01*
X120724817Y-85478642D01*
X120478514Y-86003108D01*
X119757000Y-86003108D01*
X119757000Y-81646580D01*
X125230139Y-76173440D01*
X126326000Y-76173440D01*
X126561317Y-76129162D01*
X126777441Y-75990090D01*
X126922431Y-75777890D01*
X126944301Y-75669893D01*
X127249076Y-75947645D01*
X127659110Y-76117476D01*
X127889000Y-75996155D01*
X127889000Y-74803000D01*
X127869000Y-74803000D01*
X127869000Y-74549000D01*
X127889000Y-74549000D01*
X127889000Y-73355845D01*
X128143000Y-73355845D01*
X128143000Y-74549000D01*
X128163000Y-74549000D01*
X128163000Y-74803000D01*
X128143000Y-74803000D01*
X128143000Y-75996155D01*
X128372890Y-76117476D01*
X128782924Y-75947645D01*
X129211183Y-75557358D01*
X129278298Y-75414447D01*
X129505946Y-75755147D01*
X129671000Y-75865432D01*
X129671000Y-77977995D01*
X129670999Y-77978000D01*
X129710458Y-78176367D01*
X129738367Y-78316675D01*
X129930210Y-78603790D01*
X131561247Y-80234826D01*
X131560735Y-80821991D01*
X131793932Y-81386371D01*
X132225357Y-81818551D01*
X132789330Y-82052733D01*
X133399991Y-82053265D01*
X133964371Y-81820068D01*
X134366323Y-81418818D01*
X134765357Y-81818551D01*
X135329330Y-82052733D01*
X135939991Y-82053265D01*
X136504371Y-81820068D01*
X136906323Y-81418818D01*
X137305357Y-81818551D01*
X137869330Y-82052733D01*
X138479991Y-82053265D01*
X139044371Y-81820068D01*
X139446323Y-81418818D01*
X139845357Y-81818551D01*
X140409330Y-82052733D01*
X141019991Y-82053265D01*
X141584371Y-81820068D01*
X141986323Y-81418818D01*
X142385357Y-81818551D01*
X142949330Y-82052733D01*
X143559991Y-82053265D01*
X144124371Y-81820068D01*
X144526323Y-81418818D01*
X144925357Y-81818551D01*
X145489330Y-82052733D01*
X146099991Y-82053265D01*
X146664371Y-81820068D01*
X147066323Y-81418818D01*
X147465357Y-81818551D01*
X148029330Y-82052733D01*
X148639991Y-82053265D01*
X149204371Y-81820068D01*
X149606323Y-81418818D01*
X150005357Y-81818551D01*
X150569330Y-82052733D01*
X151179991Y-82053265D01*
X151515000Y-81914842D01*
X151515000Y-88787421D01*
X138459174Y-101843247D01*
X137872009Y-101842735D01*
X137307629Y-102075932D01*
X136875449Y-102507357D01*
X136866797Y-102528194D01*
X136716159Y-102477446D01*
X135815605Y-103378000D01*
X136716159Y-104278554D01*
X136866327Y-104227965D01*
X136873932Y-104246371D01*
X137305357Y-104678551D01*
X137869330Y-104912733D01*
X138479991Y-104913265D01*
X139044371Y-104680068D01*
X139446323Y-104278818D01*
X139845357Y-104678551D01*
X140409330Y-104912733D01*
X141019991Y-104913265D01*
X141584371Y-104680068D01*
X141986323Y-104278818D01*
X142385357Y-104678551D01*
X142949330Y-104912733D01*
X143559991Y-104913265D01*
X144124371Y-104680068D01*
X144526323Y-104278818D01*
X144925357Y-104678551D01*
X145489330Y-104912733D01*
X146099991Y-104913265D01*
X146664371Y-104680068D01*
X147066323Y-104278818D01*
X147465357Y-104678551D01*
X148029330Y-104912733D01*
X148639991Y-104913265D01*
X149204371Y-104680068D01*
X149606323Y-104278818D01*
X150005357Y-104678551D01*
X150569330Y-104912733D01*
X151179991Y-104913265D01*
X151744371Y-104680068D01*
X151902540Y-104522175D01*
X158961590Y-104522175D01*
X159285940Y-105307160D01*
X159886001Y-105908269D01*
X160670419Y-106233988D01*
X161519775Y-106234730D01*
X162304760Y-105910380D01*
X162905869Y-105310319D01*
X163231588Y-104525901D01*
X163232330Y-103676545D01*
X162907980Y-102891560D01*
X162307919Y-102290451D01*
X161523501Y-101964732D01*
X160674145Y-101963990D01*
X159889160Y-102288340D01*
X159288051Y-102888401D01*
X158962332Y-103672819D01*
X158961590Y-104522175D01*
X151902540Y-104522175D01*
X152176551Y-104248643D01*
X152410733Y-103684670D01*
X152411265Y-103074009D01*
X152178068Y-102509629D01*
X151746643Y-102077449D01*
X151182670Y-101843267D01*
X150572009Y-101842735D01*
X150007629Y-102075932D01*
X149605677Y-102477182D01*
X149206643Y-102077449D01*
X148642670Y-101843267D01*
X148582365Y-101843214D01*
X160645787Y-89779792D01*
X160645790Y-89779790D01*
X160837633Y-89492675D01*
X160848810Y-89436484D01*
X160905001Y-89154000D01*
X160905000Y-89153995D01*
X160905000Y-73325432D01*
X161070054Y-73215147D01*
X161391961Y-72733378D01*
X161505000Y-72165093D01*
X161505000Y-72106907D01*
X161391961Y-71538622D01*
X161070054Y-71056853D01*
X160588285Y-70734946D01*
X160020000Y-70621907D01*
X159451715Y-70734946D01*
X158969946Y-71056853D01*
X158750000Y-71386026D01*
X158530054Y-71056853D01*
X158048285Y-70734946D01*
X157480000Y-70621907D01*
X156911715Y-70734946D01*
X156429946Y-71056853D01*
X156210000Y-71386026D01*
X155990054Y-71056853D01*
X155508285Y-70734946D01*
X154940000Y-70621907D01*
X154371715Y-70734946D01*
X153889946Y-71056853D01*
X153670000Y-71386026D01*
X153450054Y-71056853D01*
X152968285Y-70734946D01*
X152400000Y-70621907D01*
X151831715Y-70734946D01*
X151349946Y-71056853D01*
X151130000Y-71386026D01*
X150910054Y-71056853D01*
X150428285Y-70734946D01*
X149860000Y-70621907D01*
X149291715Y-70734946D01*
X148809946Y-71056853D01*
X148590000Y-71386026D01*
X148370054Y-71056853D01*
X147888285Y-70734946D01*
X147320000Y-70621907D01*
X146751715Y-70734946D01*
X146269946Y-71056853D01*
X146242150Y-71098452D01*
X146233162Y-71050683D01*
X146094090Y-70834559D01*
X145881890Y-70689569D01*
X145630000Y-70638560D01*
X143930000Y-70638560D01*
X143694683Y-70682838D01*
X143478559Y-70821910D01*
X143333569Y-71034110D01*
X143282560Y-71286000D01*
X143282560Y-72986000D01*
X143326838Y-73221317D01*
X143465910Y-73437441D01*
X143678110Y-73582431D01*
X143895000Y-73626352D01*
X143895000Y-73673127D01*
X143648902Y-73918796D01*
X143445232Y-74409287D01*
X143444769Y-74940383D01*
X143647582Y-75431229D01*
X143895000Y-75679079D01*
X143895000Y-76213127D01*
X143648902Y-76458796D01*
X143445232Y-76949287D01*
X143444769Y-77480383D01*
X143647582Y-77971229D01*
X143895000Y-78219079D01*
X143895000Y-78627421D01*
X143539174Y-78983247D01*
X142952009Y-78982735D01*
X142387629Y-79215932D01*
X141985677Y-79617182D01*
X141601000Y-79231831D01*
X141601000Y-78225556D01*
X141659988Y-78186142D01*
X141949379Y-77753036D01*
X142051000Y-77242154D01*
X142051000Y-77189846D01*
X141949379Y-76678964D01*
X141659988Y-76245858D01*
X141226882Y-75956467D01*
X141149955Y-75941165D01*
X141471229Y-75808418D01*
X141847098Y-75433204D01*
X142050768Y-74942713D01*
X142051231Y-74411617D01*
X141848418Y-73920771D01*
X141473204Y-73544902D01*
X140982713Y-73341232D01*
X140632506Y-73340927D01*
X139092000Y-71800420D01*
X139092000Y-71740928D01*
X139002939Y-71293188D01*
X138749315Y-70913613D01*
X138369740Y-70659989D01*
X137922000Y-70570928D01*
X137474260Y-70659989D01*
X137287000Y-70785112D01*
X137099740Y-70659989D01*
X136652000Y-70570928D01*
X136204260Y-70659989D01*
X136017000Y-70785112D01*
X135829740Y-70659989D01*
X135382000Y-70570928D01*
X134934260Y-70659989D01*
X134927165Y-70664729D01*
X134773309Y-70601000D01*
X134397750Y-70601000D01*
X134239000Y-70759750D01*
X134239000Y-71605190D01*
X134212000Y-71740928D01*
X134212000Y-72531072D01*
X134239000Y-72666810D01*
X134239000Y-73512250D01*
X134397750Y-73671000D01*
X134497000Y-73671000D01*
X134497000Y-73937826D01*
X134301232Y-74409287D01*
X134300769Y-74940383D01*
X134503582Y-75431229D01*
X134878796Y-75807098D01*
X135201788Y-75941216D01*
X135125118Y-75956467D01*
X134692012Y-76245858D01*
X134402621Y-76678964D01*
X134301000Y-77189846D01*
X134301000Y-77242154D01*
X134402621Y-77753036D01*
X134692012Y-78186142D01*
X134751000Y-78225556D01*
X134751000Y-79232532D01*
X134365677Y-79617182D01*
X133966643Y-79217449D01*
X133402670Y-78983267D01*
X132812332Y-78982753D01*
X131441000Y-77611420D01*
X131441000Y-75865432D01*
X131606054Y-75755147D01*
X131927961Y-75273378D01*
X132041000Y-74705093D01*
X132041000Y-74646907D01*
X131927961Y-74078622D01*
X131606054Y-73596853D01*
X131124285Y-73274946D01*
X130556000Y-73161907D01*
X129987715Y-73274946D01*
X129505946Y-73596853D01*
X129278298Y-73937553D01*
X129211183Y-73794642D01*
X128782924Y-73404355D01*
X128372890Y-73234524D01*
X128143000Y-73355845D01*
X127889000Y-73355845D01*
X127659110Y-73234524D01*
X127249076Y-73404355D01*
X126946063Y-73680501D01*
X126929162Y-73590683D01*
X126790090Y-73374559D01*
X126577890Y-73229569D01*
X126326000Y-73178560D01*
X124626000Y-73178560D01*
X124390683Y-73222838D01*
X124174559Y-73361910D01*
X124029569Y-73574110D01*
X123978560Y-73826000D01*
X123978560Y-74921861D01*
X118246210Y-80654210D01*
X118054367Y-80941325D01*
X118054367Y-80941326D01*
X117986999Y-81280000D01*
X116967000Y-81280000D01*
X116967000Y-71009415D01*
X117612930Y-71009415D01*
X117937280Y-71794400D01*
X118537341Y-72395509D01*
X119321759Y-72721228D01*
X120171115Y-72721970D01*
X120897701Y-72421750D01*
X132942000Y-72421750D01*
X132942000Y-73162310D01*
X133038673Y-73395699D01*
X133217302Y-73574327D01*
X133450691Y-73671000D01*
X133826250Y-73671000D01*
X133985000Y-73512250D01*
X133985000Y-72263000D01*
X133100750Y-72263000D01*
X132942000Y-72421750D01*
X120897701Y-72421750D01*
X120956100Y-72397620D01*
X121557209Y-71797559D01*
X121842837Y-71109690D01*
X132942000Y-71109690D01*
X132942000Y-71850250D01*
X133100750Y-72009000D01*
X133985000Y-72009000D01*
X133985000Y-70759750D01*
X133826250Y-70601000D01*
X133450691Y-70601000D01*
X133217302Y-70697673D01*
X133038673Y-70876301D01*
X132942000Y-71109690D01*
X121842837Y-71109690D01*
X121882928Y-71013141D01*
X121883670Y-70163785D01*
X121559320Y-69378800D01*
X120959259Y-68777691D01*
X120174841Y-68451972D01*
X119325485Y-68451230D01*
X118540500Y-68775580D01*
X117939391Y-69375641D01*
X117613672Y-70160059D01*
X117612930Y-71009415D01*
X116967000Y-71009415D01*
X116967000Y-67691000D01*
X163957000Y-67691000D01*
X163957000Y-107061000D01*
X163957000Y-107061000D01*
G37*
X163957000Y-107061000D02*
X116967000Y-107061000D01*
X116967000Y-81280000D01*
X117986999Y-81280000D01*
X117987000Y-81280005D01*
X117987000Y-100583995D01*
X117986999Y-100584000D01*
X118020839Y-100754120D01*
X118054367Y-100922675D01*
X118246210Y-101209790D01*
X119770208Y-102733787D01*
X119770210Y-102733790D01*
X120001603Y-102888401D01*
X120057325Y-102925633D01*
X120396000Y-102993000D01*
X120799856Y-102993000D01*
X120905302Y-103150811D01*
X121370849Y-103461880D01*
X121920000Y-103571113D01*
X122469151Y-103461880D01*
X122934698Y-103150811D01*
X123040144Y-102993000D01*
X131459420Y-102993000D01*
X131561247Y-103094826D01*
X131560735Y-103681991D01*
X131793932Y-104246371D01*
X132225357Y-104678551D01*
X132789330Y-104912733D01*
X133399991Y-104913265D01*
X133964371Y-104680068D01*
X134186668Y-104458159D01*
X134735446Y-104458159D01*
X134821852Y-104714643D01*
X135395336Y-104924458D01*
X136005460Y-104898839D01*
X136450148Y-104714643D01*
X136536554Y-104458159D01*
X135636000Y-103557605D01*
X134735446Y-104458159D01*
X134186668Y-104458159D01*
X134396551Y-104248643D01*
X134405203Y-104227806D01*
X134555841Y-104278554D01*
X135456395Y-103378000D01*
X134555841Y-102477446D01*
X134405673Y-102528035D01*
X134398068Y-102509629D01*
X134186650Y-102297841D01*
X134735446Y-102297841D01*
X135636000Y-103198395D01*
X136536554Y-102297841D01*
X136450148Y-102041357D01*
X135876664Y-101831542D01*
X135266540Y-101857161D01*
X134821852Y-102041357D01*
X134735446Y-102297841D01*
X134186650Y-102297841D01*
X133966643Y-102077449D01*
X133402670Y-101843267D01*
X132812332Y-101842753D01*
X132451790Y-101482210D01*
X132331197Y-101401633D01*
X132164675Y-101290367D01*
X132108484Y-101279190D01*
X131826000Y-101222999D01*
X131825995Y-101223000D01*
X123040144Y-101223000D01*
X122934698Y-101065189D01*
X122469151Y-100754120D01*
X121920000Y-100644887D01*
X121370849Y-100754120D01*
X120905302Y-101065189D01*
X120799856Y-101223000D01*
X120762579Y-101223000D01*
X119757000Y-100217420D01*
X119757000Y-88050000D01*
X120422560Y-88050000D01*
X120422560Y-89750000D01*
X120466838Y-89985317D01*
X120605910Y-90201441D01*
X120818110Y-90346431D01*
X121035000Y-90390352D01*
X121035000Y-93056554D01*
X120884683Y-93084838D01*
X120668559Y-93223910D01*
X120523569Y-93436110D01*
X120472560Y-93688000D01*
X120472560Y-95288000D01*
X120516838Y-95523317D01*
X120655910Y-95739441D01*
X120868110Y-95884431D01*
X121120000Y-95935440D01*
X122720000Y-95935440D01*
X122955317Y-95891162D01*
X123171441Y-95752090D01*
X123316431Y-95539890D01*
X123367440Y-95288000D01*
X123367440Y-93688000D01*
X123323162Y-93452683D01*
X123184090Y-93236559D01*
X122971890Y-93091569D01*
X122805000Y-93057773D01*
X122805000Y-90390854D01*
X123005317Y-90353162D01*
X123221441Y-90214090D01*
X123366431Y-90001890D01*
X123417440Y-89750000D01*
X123417440Y-88050000D01*
X123373162Y-87814683D01*
X123234090Y-87598559D01*
X123021890Y-87453569D01*
X122907699Y-87430445D01*
X123115183Y-87241358D01*
X123361486Y-86716892D01*
X123240819Y-86487000D01*
X122047000Y-86487000D01*
X122047000Y-86507000D01*
X121793000Y-86507000D01*
X121793000Y-86487000D01*
X120599181Y-86487000D01*
X120478514Y-86716892D01*
X120724817Y-87241358D01*
X120930504Y-87428808D01*
X120834683Y-87446838D01*
X120618559Y-87585910D01*
X120473569Y-87798110D01*
X120422560Y-88050000D01*
X119757000Y-88050000D01*
X119757000Y-86003108D01*
X120478514Y-86003108D01*
X120599181Y-86233000D01*
X121793000Y-86233000D01*
X121793000Y-85039845D01*
X122047000Y-85039845D01*
X122047000Y-86233000D01*
X123240819Y-86233000D01*
X123361486Y-86003108D01*
X123115183Y-85478642D01*
X122686924Y-85088355D01*
X122276890Y-84918524D01*
X122047000Y-85039845D01*
X121793000Y-85039845D01*
X121563110Y-84918524D01*
X121153076Y-85088355D01*
X120724817Y-85478642D01*
X120478514Y-86003108D01*
X119757000Y-86003108D01*
X119757000Y-81646580D01*
X125230139Y-76173440D01*
X126326000Y-76173440D01*
X126561317Y-76129162D01*
X126777441Y-75990090D01*
X126922431Y-75777890D01*
X126944301Y-75669893D01*
X127249076Y-75947645D01*
X127659110Y-76117476D01*
X127889000Y-75996155D01*
X127889000Y-74803000D01*
X127869000Y-74803000D01*
X127869000Y-74549000D01*
X127889000Y-74549000D01*
X127889000Y-73355845D01*
X128143000Y-73355845D01*
X128143000Y-74549000D01*
X128163000Y-74549000D01*
X128163000Y-74803000D01*
X128143000Y-74803000D01*
X128143000Y-75996155D01*
X128372890Y-76117476D01*
X128782924Y-75947645D01*
X129211183Y-75557358D01*
X129278298Y-75414447D01*
X129505946Y-75755147D01*
X129671000Y-75865432D01*
X129671000Y-77977995D01*
X129670999Y-77978000D01*
X129710458Y-78176367D01*
X129738367Y-78316675D01*
X129930210Y-78603790D01*
X131561247Y-80234826D01*
X131560735Y-80821991D01*
X131793932Y-81386371D01*
X132225357Y-81818551D01*
X132789330Y-82052733D01*
X133399991Y-82053265D01*
X133964371Y-81820068D01*
X134366323Y-81418818D01*
X134765357Y-81818551D01*
X135329330Y-82052733D01*
X135939991Y-82053265D01*
X136504371Y-81820068D01*
X136906323Y-81418818D01*
X137305357Y-81818551D01*
X137869330Y-82052733D01*
X138479991Y-82053265D01*
X139044371Y-81820068D01*
X139446323Y-81418818D01*
X139845357Y-81818551D01*
X140409330Y-82052733D01*
X141019991Y-82053265D01*
X141584371Y-81820068D01*
X141986323Y-81418818D01*
X142385357Y-81818551D01*
X142949330Y-82052733D01*
X143559991Y-82053265D01*
X144124371Y-81820068D01*
X144526323Y-81418818D01*
X144925357Y-81818551D01*
X145489330Y-82052733D01*
X146099991Y-82053265D01*
X146664371Y-81820068D01*
X147066323Y-81418818D01*
X147465357Y-81818551D01*
X148029330Y-82052733D01*
X148639991Y-82053265D01*
X149204371Y-81820068D01*
X149606323Y-81418818D01*
X150005357Y-81818551D01*
X150569330Y-82052733D01*
X151179991Y-82053265D01*
X151515000Y-81914842D01*
X151515000Y-88787421D01*
X138459174Y-101843247D01*
X137872009Y-101842735D01*
X137307629Y-102075932D01*
X136875449Y-102507357D01*
X136866797Y-102528194D01*
X136716159Y-102477446D01*
X135815605Y-103378000D01*
X136716159Y-104278554D01*
X136866327Y-104227965D01*
X136873932Y-104246371D01*
X137305357Y-104678551D01*
X137869330Y-104912733D01*
X138479991Y-104913265D01*
X139044371Y-104680068D01*
X139446323Y-104278818D01*
X139845357Y-104678551D01*
X140409330Y-104912733D01*
X141019991Y-104913265D01*
X141584371Y-104680068D01*
X141986323Y-104278818D01*
X142385357Y-104678551D01*
X142949330Y-104912733D01*
X143559991Y-104913265D01*
X144124371Y-104680068D01*
X144526323Y-104278818D01*
X144925357Y-104678551D01*
X145489330Y-104912733D01*
X146099991Y-104913265D01*
X146664371Y-104680068D01*
X147066323Y-104278818D01*
X147465357Y-104678551D01*
X148029330Y-104912733D01*
X148639991Y-104913265D01*
X149204371Y-104680068D01*
X149606323Y-104278818D01*
X150005357Y-104678551D01*
X150569330Y-104912733D01*
X151179991Y-104913265D01*
X151744371Y-104680068D01*
X151902540Y-104522175D01*
X158961590Y-104522175D01*
X159285940Y-105307160D01*
X159886001Y-105908269D01*
X160670419Y-106233988D01*
X161519775Y-106234730D01*
X162304760Y-105910380D01*
X162905869Y-105310319D01*
X163231588Y-104525901D01*
X163232330Y-103676545D01*
X162907980Y-102891560D01*
X162307919Y-102290451D01*
X161523501Y-101964732D01*
X160674145Y-101963990D01*
X159889160Y-102288340D01*
X159288051Y-102888401D01*
X158962332Y-103672819D01*
X158961590Y-104522175D01*
X151902540Y-104522175D01*
X152176551Y-104248643D01*
X152410733Y-103684670D01*
X152411265Y-103074009D01*
X152178068Y-102509629D01*
X151746643Y-102077449D01*
X151182670Y-101843267D01*
X150572009Y-101842735D01*
X150007629Y-102075932D01*
X149605677Y-102477182D01*
X149206643Y-102077449D01*
X148642670Y-101843267D01*
X148582365Y-101843214D01*
X160645787Y-89779792D01*
X160645790Y-89779790D01*
X160837633Y-89492675D01*
X160848810Y-89436484D01*
X160905001Y-89154000D01*
X160905000Y-89153995D01*
X160905000Y-73325432D01*
X161070054Y-73215147D01*
X161391961Y-72733378D01*
X161505000Y-72165093D01*
X161505000Y-72106907D01*
X161391961Y-71538622D01*
X161070054Y-71056853D01*
X160588285Y-70734946D01*
X160020000Y-70621907D01*
X159451715Y-70734946D01*
X158969946Y-71056853D01*
X158750000Y-71386026D01*
X158530054Y-71056853D01*
X158048285Y-70734946D01*
X157480000Y-70621907D01*
X156911715Y-70734946D01*
X156429946Y-71056853D01*
X156210000Y-71386026D01*
X155990054Y-71056853D01*
X155508285Y-70734946D01*
X154940000Y-70621907D01*
X154371715Y-70734946D01*
X153889946Y-71056853D01*
X153670000Y-71386026D01*
X153450054Y-71056853D01*
X152968285Y-70734946D01*
X152400000Y-70621907D01*
X151831715Y-70734946D01*
X151349946Y-71056853D01*
X151130000Y-71386026D01*
X150910054Y-71056853D01*
X150428285Y-70734946D01*
X149860000Y-70621907D01*
X149291715Y-70734946D01*
X148809946Y-71056853D01*
X148590000Y-71386026D01*
X148370054Y-71056853D01*
X147888285Y-70734946D01*
X147320000Y-70621907D01*
X146751715Y-70734946D01*
X146269946Y-71056853D01*
X146242150Y-71098452D01*
X146233162Y-71050683D01*
X146094090Y-70834559D01*
X145881890Y-70689569D01*
X145630000Y-70638560D01*
X143930000Y-70638560D01*
X143694683Y-70682838D01*
X143478559Y-70821910D01*
X143333569Y-71034110D01*
X143282560Y-71286000D01*
X143282560Y-72986000D01*
X143326838Y-73221317D01*
X143465910Y-73437441D01*
X143678110Y-73582431D01*
X143895000Y-73626352D01*
X143895000Y-73673127D01*
X143648902Y-73918796D01*
X143445232Y-74409287D01*
X143444769Y-74940383D01*
X143647582Y-75431229D01*
X143895000Y-75679079D01*
X143895000Y-76213127D01*
X143648902Y-76458796D01*
X143445232Y-76949287D01*
X143444769Y-77480383D01*
X143647582Y-77971229D01*
X143895000Y-78219079D01*
X143895000Y-78627421D01*
X143539174Y-78983247D01*
X142952009Y-78982735D01*
X142387629Y-79215932D01*
X141985677Y-79617182D01*
X141601000Y-79231831D01*
X141601000Y-78225556D01*
X141659988Y-78186142D01*
X141949379Y-77753036D01*
X142051000Y-77242154D01*
X142051000Y-77189846D01*
X141949379Y-76678964D01*
X141659988Y-76245858D01*
X141226882Y-75956467D01*
X141149955Y-75941165D01*
X141471229Y-75808418D01*
X141847098Y-75433204D01*
X142050768Y-74942713D01*
X142051231Y-74411617D01*
X141848418Y-73920771D01*
X141473204Y-73544902D01*
X140982713Y-73341232D01*
X140632506Y-73340927D01*
X139092000Y-71800420D01*
X139092000Y-71740928D01*
X139002939Y-71293188D01*
X138749315Y-70913613D01*
X138369740Y-70659989D01*
X137922000Y-70570928D01*
X137474260Y-70659989D01*
X137287000Y-70785112D01*
X137099740Y-70659989D01*
X136652000Y-70570928D01*
X136204260Y-70659989D01*
X136017000Y-70785112D01*
X135829740Y-70659989D01*
X135382000Y-70570928D01*
X134934260Y-70659989D01*
X134927165Y-70664729D01*
X134773309Y-70601000D01*
X134397750Y-70601000D01*
X134239000Y-70759750D01*
X134239000Y-71605190D01*
X134212000Y-71740928D01*
X134212000Y-72531072D01*
X134239000Y-72666810D01*
X134239000Y-73512250D01*
X134397750Y-73671000D01*
X134497000Y-73671000D01*
X134497000Y-73937826D01*
X134301232Y-74409287D01*
X134300769Y-74940383D01*
X134503582Y-75431229D01*
X134878796Y-75807098D01*
X135201788Y-75941216D01*
X135125118Y-75956467D01*
X134692012Y-76245858D01*
X134402621Y-76678964D01*
X134301000Y-77189846D01*
X134301000Y-77242154D01*
X134402621Y-77753036D01*
X134692012Y-78186142D01*
X134751000Y-78225556D01*
X134751000Y-79232532D01*
X134365677Y-79617182D01*
X133966643Y-79217449D01*
X133402670Y-78983267D01*
X132812332Y-78982753D01*
X131441000Y-77611420D01*
X131441000Y-75865432D01*
X131606054Y-75755147D01*
X131927961Y-75273378D01*
X132041000Y-74705093D01*
X132041000Y-74646907D01*
X131927961Y-74078622D01*
X131606054Y-73596853D01*
X131124285Y-73274946D01*
X130556000Y-73161907D01*
X129987715Y-73274946D01*
X129505946Y-73596853D01*
X129278298Y-73937553D01*
X129211183Y-73794642D01*
X128782924Y-73404355D01*
X128372890Y-73234524D01*
X128143000Y-73355845D01*
X127889000Y-73355845D01*
X127659110Y-73234524D01*
X127249076Y-73404355D01*
X126946063Y-73680501D01*
X126929162Y-73590683D01*
X126790090Y-73374559D01*
X126577890Y-73229569D01*
X126326000Y-73178560D01*
X124626000Y-73178560D01*
X124390683Y-73222838D01*
X124174559Y-73361910D01*
X124029569Y-73574110D01*
X123978560Y-73826000D01*
X123978560Y-74921861D01*
X118246210Y-80654210D01*
X118054367Y-80941325D01*
X118054367Y-80941326D01*
X117986999Y-81280000D01*
X116967000Y-81280000D01*
X116967000Y-71009415D01*
X117612930Y-71009415D01*
X117937280Y-71794400D01*
X118537341Y-72395509D01*
X119321759Y-72721228D01*
X120171115Y-72721970D01*
X120897701Y-72421750D01*
X132942000Y-72421750D01*
X132942000Y-73162310D01*
X133038673Y-73395699D01*
X133217302Y-73574327D01*
X133450691Y-73671000D01*
X133826250Y-73671000D01*
X133985000Y-73512250D01*
X133985000Y-72263000D01*
X133100750Y-72263000D01*
X132942000Y-72421750D01*
X120897701Y-72421750D01*
X120956100Y-72397620D01*
X121557209Y-71797559D01*
X121842837Y-71109690D01*
X132942000Y-71109690D01*
X132942000Y-71850250D01*
X133100750Y-72009000D01*
X133985000Y-72009000D01*
X133985000Y-70759750D01*
X133826250Y-70601000D01*
X133450691Y-70601000D01*
X133217302Y-70697673D01*
X133038673Y-70876301D01*
X132942000Y-71109690D01*
X121842837Y-71109690D01*
X121882928Y-71013141D01*
X121883670Y-70163785D01*
X121559320Y-69378800D01*
X120959259Y-68777691D01*
X120174841Y-68451972D01*
X119325485Y-68451230D01*
X118540500Y-68775580D01*
X117939391Y-69375641D01*
X117613672Y-70160059D01*
X117612930Y-71009415D01*
X116967000Y-71009415D01*
X116967000Y-67691000D01*
X163957000Y-67691000D01*
X163957000Y-107061000D01*
M02*
