<?xml version="1.0" encoding="UTF-8" standalone="no"?>
<!-- Created with Inkscape (http://www.inkscape.org/) -->

<svg
   xmlns:dc="http://purl.org/dc/elements/1.1/"
   xmlns:cc="http://creativecommons.org/ns#"
   xmlns:rdf="http://www.w3.org/1999/02/22-rdf-syntax-ns#"
   xmlns:svg="http://www.w3.org/2000/svg"
   xmlns="http://www.w3.org/2000/svg"
   xmlns:sodipodi="http://sodipodi.sourceforge.net/DTD/sodipodi-0.dtd"
   xmlns:inkscape="http://www.inkscape.org/namespaces/inkscape"
   width="400mm"
   height="300mm"
   viewBox="0 0 400 300"
   version="1.1"
   id="svg9710"
   inkscape:version="0.92.1 r15371"
   sodipodi:docname="SupportRouteur.svg">
  <defs
     id="defs9704" />
  <sodipodi:namedview
     id="base"
     pagecolor="#ffffff"
     bordercolor="#666666"
     borderopacity="1.0"
     inkscape:pageopacity="0.0"
     inkscape:pageshadow="2"
     inkscape:zoom="0.49497475"
     inkscape:cx="898.06146"
     inkscape:cy="414.31108"
     inkscape:document-units="mm"
     inkscape:current-layer="layer1"
     showgrid="false"
     inkscape:window-width="1920"
     inkscape:window-height="1129"
     inkscape:window-x="1680"
     inkscape:window-y="34"
     inkscape:window-maximized="1" />
  <metadata
     id="metadata9707">
    <rdf:RDF>
      <cc:Work
         rdf:about="">
        <dc:format>image/svg+xml</dc:format>
        <dc:type
           rdf:resource="http://purl.org/dc/dcmitype/StillImage" />
        <dc:title></dc:title>
      </cc:Work>
    </rdf:RDF>
  </metadata>
  <g
     inkscape:label="Calque 1"
     inkscape:groupmode="layer"
     id="layer1"
     transform="translate(0,3)">
    <path
       style="opacity:0.93000034;fill:none;fill-opacity:1;stroke:#000000;stroke-width:0.1;stroke-miterlimit:4;stroke-dasharray:none;stroke-opacity:1"
       d="M 216.39802,146.22819 H 213.3982 210.39787 15.397895 12.398075 9.3982553 v 129.99983 h 2.9998197 2.99982 194.999975 3.00033 2.99982 z m -2.99982,43.33327 v 43.33327 h -3.00033 v -43.33327 z m -198.000305,0 v 43.33327 h -2.99982 v -43.33327 z"
       id="rect8722"
       inkscape:connector-curvature="0" />
    <g
       id="g9159"
       transform="rotate(90,244.70038,3.7967953)"
       style="fill:none;stroke:#000000;stroke-width:0.1;stroke-miterlimit:4;stroke-dasharray:none;stroke-opacity:1">
      <path
         sodipodi:nodetypes="ccccccccccccccccccc"
         inkscape:connector-curvature="0"
         id="rect4485"
         d="m 297.05973,189.75309 1.25523,0.16898 5.68337,-42.95086 2.94659,0.38912 5.672,-42.96068 -2.93418,-0.38706 5.68544,-42.965856 -1.30845,-0.168981 m 0,0 h -25.99996 -0.99994 v 42.971017 h -2.99982 v 42.97103 h 2.99982 v 42.97153 h 0.99994 v -0.0382 l 8.99996,-4e-5"
         style="opacity:0.93000034;fill:none;fill-opacity:1;stroke:#000000;stroke-width:0.1;stroke-miterlimit:4;stroke-dasharray:none;stroke-opacity:1" />
      <path
         inkscape:connector-curvature="0"
         id="rect8741-0-2-8"
         d="m 246.04786,12.099327 v 9.999909 2.99981 2.99982 194.999984 3.00035 2.99982 9.9999 h 128.91306 v -9.9999 h 5.3e-4 v -2.99982 -3.00035 -194.999984 -2.99982 -2.99981 h -5.3e-4 v -9.999909 z m 10.91561,2.500106 a 2.4999998,2.4999998 0 0 1 2.49959,2.500106 2.4999998,2.4999998 0 0 1 -2.49959,2.500107 2.4999998,2.4999998 0 0 1 -2.5001,-2.500107 2.4999998,2.4999998 0 0 1 2.5001,-2.500106 z m 107.08236,0 a 2.4999999,2.4999999 0 0 1 2.5001,2.500106 2.4999999,2.4999999 0 0 1 -2.5001,2.500107 2.4999999,2.4999999 0 0 1 -2.50011,-2.500107 2.4999999,2.4999999 0 0 1 2.50011,-2.500106 z m -75.02695,10.499613 h 42.97102 v 2.99982 h -42.97102 z m -24.53804,18.74201 h 92.04761 V 207.35667 h -92.04761 z m 24.53804,179.257794 h 42.97102 v 3.00035 h -42.97102 z m -32.05541,8.50027 a 2.4999999,2.4999999 0 0 1 2.49959,2.5001 2.4999999,2.4999999 0 0 1 -2.49959,2.5001 2.4999999,2.4999999 0 0 1 -2.5001,-2.5001 2.4999999,2.4999999 0 0 1 2.5001,-2.5001 z m 107.08236,0 a 2.4999999,2.4999999 0 0 1 2.5001,2.5001 2.4999999,2.4999999 0 0 1 -2.5001,2.5001 2.4999999,2.4999999 0 0 1 -2.50011,-2.5001 2.4999999,2.4999999 0 0 1 2.50011,-2.5001 z"
         style="opacity:0.93000034;fill:none;fill-opacity:1;stroke:#000000;stroke-width:0.1;stroke-miterlimit:4;stroke-dasharray:none;stroke-opacity:1" />
      <path
         sodipodi:nodetypes="ccccccccccccccccccc"
         inkscape:connector-curvature="0"
         id="rect4485-9"
         d="m 335.36356,60.07131 -1.25523,-0.16899 -5.68337,42.95086 -2.94659,-0.38912 -5.672,42.96068 2.93418,0.38706 -5.68544,42.96585 1.30845,0.16898 m 0,0 h 25.99996 0.99994 v -42.97101 h 2.99982 v -42.97103 h -2.99982 V 60.03306 h -0.99994 v 0.0382 l -8.99996,4e-5"
         style="opacity:0.93000034;fill:none;fill-opacity:1;stroke:#000000;stroke-width:0.1;stroke-miterlimit:4;stroke-dasharray:none;stroke-opacity:1" />
    </g>
    <g
       id="g13832"
       transform="translate(-169.73077,148.33149)"
       style="stroke:#000000;stroke-opacity:1;stroke-width:0.1;stroke-miterlimit:4;stroke-dasharray:none;fill:none">
      <path
         sodipodi:nodetypes="ccccc"
         inkscape:connector-curvature="0"
         id="rect25154"
         d="m 520.71743,130.099 h -79.33998 v -3.2 h 79.33998 z"
         style="opacity:0.93000034;fill:none;fill-opacity:1;stroke:#000000;stroke-width:0.1;stroke-miterlimit:4;stroke-dasharray:none;stroke-opacity:1" />
      <path
         inkscape:connector-curvature="0"
         id="rect25150"
         transform="matrix(0.26458333,0,0,0.26458333,0,-3)"
         d="M 1553.5645,22.294922 V 513.63281 h 22.2382 a 13.228346,13.228346 0 0 1 13.2285,-13.21484 13.228346,13.228346 0 0 1 13.2286,13.21484 h 431.7441 a 13.228346,13.228346 0 0 1 13.2285,-13.21484 13.228346,13.228346 0 0 1 13.2285,13.21484 h 22.2383 V 22.294922 h -22.25 a 13.228346,13.228346 0 0 1 -13.2168,12.992187 13.228346,13.228346 0 0 1 -13.2207,-12.992187 H 1602.248 a 13.228346,13.228346 0 0 1 -13.2168,12.992187 13.228346,13.228346 0 0 1 -13.2207,-12.992187 z m 114.6328,10.583984 h 299.8672 v 12.09375 h -299.8672 z"
         style="opacity:0.93000034;fill:none;fill-opacity:1;stroke:#000000;stroke-width:0.37795276;stroke-miterlimit:4;stroke-dasharray:none;stroke-opacity:1" />
    </g>
    <g
       id="g13865"
       transform="translate(-169.82226,162.49987)"
       style="stroke:#000000;stroke-opacity:1;stroke-width:0.1;stroke-miterlimit:4;stroke-dasharray:none;fill:none">
      <rect
         transform="scale(-1)"
         y="30.144205"
         x="-526.1004"
         height="2.9999988"
         width="79.339981"
         id="rect25154-5"
         style="opacity:0.93000034;fill:none;fill-opacity:1;stroke:#000000;stroke-width:0.1;stroke-miterlimit:4;stroke-dasharray:none;stroke-opacity:1" />
      <path
         inkscape:connector-curvature="0"
         id="rect25150-6"
         d="M 416.43043,-157.14434 V -27.144522 H 556.43065 V -157.14434 Z m 30.32993,3.00033 h 79.33986 v 2.99982 h -79.33986 z m -27.32961,21.99969 h 2.99982 v 79.999768 h -2.99982 z m 131.00026,0 h 2.99982 v 79.999768 h -2.99982 z"
         style="opacity:0.93000034;fill:none;fill-opacity:1;stroke:#000000;stroke-width:0.1;stroke-miterlimit:4;stroke-dasharray:none;stroke-opacity:1" />
      <circle
         transform="scale(-1)"
         r="2.4999995"
         cy="141.64426"
         cx="-434.59543"
         id="path25348-1-6-1"
         style="opacity:0.93000034;fill:none;fill-opacity:1;stroke:#000000;stroke-width:0.1;stroke-miterlimit:4;stroke-dasharray:none;stroke-opacity:1" />
      <circle
         transform="scale(-1)"
         r="2.4999995"
         cy="141.64426"
         cx="-538.26611"
         id="path25348-1-6-9-7"
         style="opacity:0.93000034;fill:none;fill-opacity:1;stroke:#000000;stroke-width:0.1;stroke-miterlimit:4;stroke-dasharray:none;stroke-opacity:1" />
      <circle
         transform="scale(-1)"
         r="2.4999995"
         cy="42.644608"
         cx="-538.26611"
         id="path25348-1-6-3-2"
         style="opacity:0.93000034;fill:none;fill-opacity:1;stroke:#000000;stroke-width:0.1;stroke-miterlimit:4;stroke-dasharray:none;stroke-opacity:1" />
      <circle
         transform="scale(-1)"
         r="2.4999995"
         cy="42.6446"
         cx="-434.5954"
         id="path25348-1-6-6-2"
         style="opacity:0.93000034;fill:none;fill-opacity:1;stroke:#000000;stroke-width:0.1;stroke-miterlimit:4;stroke-dasharray:none;stroke-opacity:1" />
    </g>
  </g>
</svg>
