G04 #@! TF.FileFunction,Other,User*
%FSLAX46Y46*%
G04 Gerber Fmt 4.6, Leading zero omitted, Abs format (unit mm)*
G04 Created by KiCad (PCBNEW 4.0.7) date Friday 03 August 2018 17:47:43*
%MOMM*%
%LPD*%
G01*
G04 APERTURE LIST*
%ADD10C,0.100000*%
%ADD11C,0.050000*%
G04 APERTURE END LIST*
D10*
D11*
X143380000Y-73476000D02*
X146130000Y-73476000D01*
X143380000Y-73476000D02*
X143380000Y-75876000D01*
X146130000Y-75876000D02*
X146130000Y-73476000D01*
X146130000Y-75876000D02*
X143380000Y-75876000D01*
X142980000Y-73936000D02*
X161830000Y-73936000D01*
X161830000Y-73936000D02*
X161830000Y-70336000D01*
X161830000Y-70336000D02*
X142980000Y-70336000D01*
X142980000Y-70336000D02*
X142980000Y-73936000D01*
X132762000Y-68886000D02*
X132762000Y-75386000D01*
X132762000Y-75386000D02*
X139262000Y-75386000D01*
X139262000Y-75386000D02*
X139262000Y-68886000D01*
X139262000Y-68886000D02*
X132762000Y-68886000D01*
X123676000Y-76476000D02*
X132326000Y-76476000D01*
X132326000Y-76476000D02*
X132326000Y-72876000D01*
X132326000Y-72876000D02*
X123676000Y-72876000D01*
X123676000Y-72876000D02*
X123676000Y-76476000D01*
X136786000Y-73526000D02*
X134486000Y-73526000D01*
X134486000Y-73526000D02*
X134486000Y-78226000D01*
X134486000Y-78226000D02*
X136786000Y-78226000D01*
X136786000Y-78226000D02*
X136786000Y-73526000D01*
X139326000Y-73526000D02*
X137026000Y-73526000D01*
X137026000Y-73526000D02*
X137026000Y-78226000D01*
X137026000Y-78226000D02*
X139326000Y-78226000D01*
X139326000Y-78226000D02*
X139326000Y-73526000D01*
X141866000Y-73526000D02*
X139566000Y-73526000D01*
X139566000Y-73526000D02*
X139566000Y-78226000D01*
X139566000Y-78226000D02*
X141866000Y-78226000D01*
X141866000Y-78226000D02*
X141866000Y-73526000D01*
X153540000Y-73476000D02*
X156290000Y-73476000D01*
X153540000Y-73476000D02*
X153540000Y-75876000D01*
X156290000Y-75876000D02*
X156290000Y-73476000D01*
X156290000Y-75876000D02*
X153540000Y-75876000D01*
X153540000Y-76016000D02*
X156290000Y-76016000D01*
X153540000Y-76016000D02*
X153540000Y-78416000D01*
X156290000Y-78416000D02*
X156290000Y-76016000D01*
X156290000Y-78416000D02*
X153540000Y-78416000D01*
X143380000Y-76016000D02*
X146130000Y-76016000D01*
X143380000Y-76016000D02*
X143380000Y-78416000D01*
X146130000Y-78416000D02*
X146130000Y-76016000D01*
X146130000Y-78416000D02*
X143380000Y-78416000D01*
X145920000Y-76016000D02*
X148670000Y-76016000D01*
X145920000Y-76016000D02*
X145920000Y-78416000D01*
X148670000Y-78416000D02*
X148670000Y-76016000D01*
X148670000Y-78416000D02*
X145920000Y-78416000D01*
X145920000Y-73476000D02*
X148670000Y-73476000D01*
X145920000Y-73476000D02*
X145920000Y-75876000D01*
X148670000Y-75876000D02*
X148670000Y-73476000D01*
X148670000Y-75876000D02*
X145920000Y-75876000D01*
X148460000Y-73476000D02*
X151210000Y-73476000D01*
X148460000Y-73476000D02*
X148460000Y-75876000D01*
X151210000Y-75876000D02*
X151210000Y-73476000D01*
X151210000Y-75876000D02*
X148460000Y-75876000D01*
X148460000Y-76016000D02*
X151210000Y-76016000D01*
X148460000Y-76016000D02*
X148460000Y-78416000D01*
X151210000Y-78416000D02*
X151210000Y-76016000D01*
X151210000Y-78416000D02*
X148460000Y-78416000D01*
X151000000Y-76016000D02*
X153750000Y-76016000D01*
X151000000Y-76016000D02*
X151000000Y-78416000D01*
X153750000Y-78416000D02*
X153750000Y-76016000D01*
X153750000Y-78416000D02*
X151000000Y-78416000D01*
X151000000Y-73476000D02*
X153750000Y-73476000D01*
X151000000Y-73476000D02*
X151000000Y-75876000D01*
X153750000Y-75876000D02*
X153750000Y-73476000D01*
X153750000Y-75876000D02*
X151000000Y-75876000D01*
X122704000Y-73892000D02*
X119104000Y-73892000D01*
X119104000Y-73892000D02*
X119104000Y-80042000D01*
X119104000Y-80042000D02*
X122704000Y-80042000D01*
X122704000Y-80042000D02*
X122704000Y-73892000D01*
M02*
