G04 #@! TF.FileFunction,Legend,Bot*
%FSLAX46Y46*%
G04 Gerber Fmt 4.6, Leading zero omitted, Abs format (unit mm)*
G04 Created by KiCad (PCBNEW 4.0.7) date Friday 03 August 2018 17:47:43*
%MOMM*%
%LPD*%
G01*
G04 APERTURE LIST*
%ADD10C,0.100000*%
%ADD11C,0.300000*%
G04 APERTURE END LIST*
D10*
D11*
X122007286Y-87306571D02*
X122935857Y-87306571D01*
X122435857Y-87878000D01*
X122650143Y-87878000D01*
X122793000Y-87949429D01*
X122864429Y-88020857D01*
X122935857Y-88163714D01*
X122935857Y-88520857D01*
X122864429Y-88663714D01*
X122793000Y-88735143D01*
X122650143Y-88806571D01*
X122221571Y-88806571D01*
X122078714Y-88735143D01*
X122007286Y-88663714D01*
X124221571Y-87306571D02*
X123935857Y-87306571D01*
X123793000Y-87378000D01*
X123721571Y-87449429D01*
X123578714Y-87663714D01*
X123507285Y-87949429D01*
X123507285Y-88520857D01*
X123578714Y-88663714D01*
X123650142Y-88735143D01*
X123793000Y-88806571D01*
X124078714Y-88806571D01*
X124221571Y-88735143D01*
X124293000Y-88663714D01*
X124364428Y-88520857D01*
X124364428Y-88163714D01*
X124293000Y-88020857D01*
X124221571Y-87949429D01*
X124078714Y-87878000D01*
X123793000Y-87878000D01*
X123650142Y-87949429D01*
X123578714Y-88020857D01*
X123507285Y-88163714D01*
X125792999Y-88806571D02*
X124935856Y-88806571D01*
X125364428Y-88806571D02*
X125364428Y-87306571D01*
X125221571Y-87520857D01*
X125078713Y-87663714D01*
X124935856Y-87735143D01*
X127150142Y-87306571D02*
X126435856Y-87306571D01*
X126364427Y-88020857D01*
X126435856Y-87949429D01*
X126578713Y-87878000D01*
X126935856Y-87878000D01*
X127078713Y-87949429D01*
X127150142Y-88020857D01*
X127221570Y-88163714D01*
X127221570Y-88520857D01*
X127150142Y-88663714D01*
X127078713Y-88735143D01*
X126935856Y-88806571D01*
X126578713Y-88806571D01*
X126435856Y-88735143D01*
X126364427Y-88663714D01*
X128935855Y-88735143D02*
X129150141Y-88806571D01*
X129507284Y-88806571D01*
X129650141Y-88735143D01*
X129721570Y-88663714D01*
X129792998Y-88520857D01*
X129792998Y-88378000D01*
X129721570Y-88235143D01*
X129650141Y-88163714D01*
X129507284Y-88092286D01*
X129221570Y-88020857D01*
X129078712Y-87949429D01*
X129007284Y-87878000D01*
X128935855Y-87735143D01*
X128935855Y-87592286D01*
X129007284Y-87449429D01*
X129078712Y-87378000D01*
X129221570Y-87306571D01*
X129578712Y-87306571D01*
X129792998Y-87378000D01*
X131007283Y-88735143D02*
X130864426Y-88806571D01*
X130578712Y-88806571D01*
X130435855Y-88735143D01*
X130364426Y-88592286D01*
X130364426Y-88020857D01*
X130435855Y-87878000D01*
X130578712Y-87806571D01*
X130864426Y-87806571D01*
X131007283Y-87878000D01*
X131078712Y-88020857D01*
X131078712Y-88163714D01*
X130364426Y-88306571D01*
X131721569Y-87806571D02*
X131721569Y-88806571D01*
X131721569Y-87949429D02*
X131792997Y-87878000D01*
X131935855Y-87806571D01*
X132150140Y-87806571D01*
X132292997Y-87878000D01*
X132364426Y-88020857D01*
X132364426Y-88806571D01*
X131650140Y-87449429D02*
X131721569Y-87378000D01*
X131864426Y-87306571D01*
X132150140Y-87449429D01*
X132292997Y-87378000D01*
X132364426Y-87306571D01*
X133292998Y-88806571D02*
X133150140Y-88735143D01*
X133078712Y-88663714D01*
X133007283Y-88520857D01*
X133007283Y-88092286D01*
X133078712Y-87949429D01*
X133150140Y-87878000D01*
X133292998Y-87806571D01*
X133507283Y-87806571D01*
X133650140Y-87878000D01*
X133721569Y-87949429D01*
X133792998Y-88092286D01*
X133792998Y-88520857D01*
X133721569Y-88663714D01*
X133650140Y-88735143D01*
X133507283Y-88806571D01*
X133292998Y-88806571D01*
X134435855Y-88806571D02*
X134435855Y-87806571D01*
X134435855Y-88092286D02*
X134507283Y-87949429D01*
X134578712Y-87878000D01*
X134721569Y-87806571D01*
X134864426Y-87806571D01*
X136507283Y-88235143D02*
X137650140Y-88235143D01*
X139435854Y-87449429D02*
X139507283Y-87378000D01*
X139650140Y-87306571D01*
X140007283Y-87306571D01*
X140150140Y-87378000D01*
X140221569Y-87449429D01*
X140292997Y-87592286D01*
X140292997Y-87735143D01*
X140221569Y-87949429D01*
X139364426Y-88806571D01*
X140292997Y-88806571D01*
X141221568Y-87306571D02*
X141364425Y-87306571D01*
X141507282Y-87378000D01*
X141578711Y-87449429D01*
X141650140Y-87592286D01*
X141721568Y-87878000D01*
X141721568Y-88235143D01*
X141650140Y-88520857D01*
X141578711Y-88663714D01*
X141507282Y-88735143D01*
X141364425Y-88806571D01*
X141221568Y-88806571D01*
X141078711Y-88735143D01*
X141007282Y-88663714D01*
X140935854Y-88520857D01*
X140864425Y-88235143D01*
X140864425Y-87878000D01*
X140935854Y-87592286D01*
X141007282Y-87449429D01*
X141078711Y-87378000D01*
X141221568Y-87306571D01*
X143150139Y-88806571D02*
X142292996Y-88806571D01*
X142721568Y-88806571D02*
X142721568Y-87306571D01*
X142578711Y-87520857D01*
X142435853Y-87663714D01*
X142292996Y-87735143D01*
X144007282Y-87949429D02*
X143864424Y-87878000D01*
X143792996Y-87806571D01*
X143721567Y-87663714D01*
X143721567Y-87592286D01*
X143792996Y-87449429D01*
X143864424Y-87378000D01*
X144007282Y-87306571D01*
X144292996Y-87306571D01*
X144435853Y-87378000D01*
X144507282Y-87449429D01*
X144578710Y-87592286D01*
X144578710Y-87663714D01*
X144507282Y-87806571D01*
X144435853Y-87878000D01*
X144292996Y-87949429D01*
X144007282Y-87949429D01*
X143864424Y-88020857D01*
X143792996Y-88092286D01*
X143721567Y-88235143D01*
X143721567Y-88520857D01*
X143792996Y-88663714D01*
X143864424Y-88735143D01*
X144007282Y-88806571D01*
X144292996Y-88806571D01*
X144435853Y-88735143D01*
X144507282Y-88663714D01*
X144578710Y-88520857D01*
X144578710Y-88235143D01*
X144507282Y-88092286D01*
X144435853Y-88020857D01*
X144292996Y-87949429D01*
X122150143Y-90570857D02*
X122650143Y-90570857D01*
X122864429Y-91356571D02*
X122150143Y-91356571D01*
X122150143Y-89856571D01*
X122864429Y-89856571D01*
X123507286Y-91356571D02*
X123507286Y-89856571D01*
X124007286Y-90928000D01*
X124507286Y-89856571D01*
X124507286Y-91356571D01*
X125221572Y-91356571D02*
X125221572Y-89856571D01*
X125578715Y-91499429D02*
X126721572Y-91499429D01*
X126935858Y-89856571D02*
X127293001Y-91356571D01*
X127578715Y-90285143D01*
X127864429Y-91356571D01*
X128221572Y-89856571D01*
X129435858Y-91356571D02*
X129435858Y-90570857D01*
X129364429Y-90428000D01*
X129221572Y-90356571D01*
X128935858Y-90356571D01*
X128793001Y-90428000D01*
X129435858Y-91285143D02*
X129293001Y-91356571D01*
X128935858Y-91356571D01*
X128793001Y-91285143D01*
X128721572Y-91142286D01*
X128721572Y-90999429D01*
X128793001Y-90856571D01*
X128935858Y-90785143D01*
X129293001Y-90785143D01*
X129435858Y-90713714D01*
X130364430Y-91356571D02*
X130221572Y-91285143D01*
X130150144Y-91142286D01*
X130150144Y-89856571D01*
X131150144Y-91356571D02*
X131007286Y-91285143D01*
X130935858Y-91142286D01*
X130935858Y-89856571D01*
X132293000Y-91285143D02*
X132150143Y-91356571D01*
X131864429Y-91356571D01*
X131721572Y-91285143D01*
X131650143Y-91142286D01*
X131650143Y-90570857D01*
X131721572Y-90428000D01*
X131864429Y-90356571D01*
X132150143Y-90356571D01*
X132293000Y-90428000D01*
X132364429Y-90570857D01*
X132364429Y-90713714D01*
X131650143Y-90856571D01*
X132793000Y-90356571D02*
X133364429Y-90356571D01*
X133007286Y-89856571D02*
X133007286Y-91142286D01*
X133078714Y-91285143D01*
X133221572Y-91356571D01*
X133364429Y-91356571D01*
X122935857Y-92478000D02*
X122793000Y-92406571D01*
X122578714Y-92406571D01*
X122364429Y-92478000D01*
X122221571Y-92620857D01*
X122150143Y-92763714D01*
X122078714Y-93049429D01*
X122078714Y-93263714D01*
X122150143Y-93549429D01*
X122221571Y-93692286D01*
X122364429Y-93835143D01*
X122578714Y-93906571D01*
X122721571Y-93906571D01*
X122935857Y-93835143D01*
X123007286Y-93763714D01*
X123007286Y-93263714D01*
X122721571Y-93263714D01*
X123650143Y-93763714D02*
X123721571Y-93835143D01*
X123650143Y-93906571D01*
X123578714Y-93835143D01*
X123650143Y-93763714D01*
X123650143Y-93906571D01*
X124864429Y-93120857D02*
X125078715Y-93192286D01*
X125150143Y-93263714D01*
X125221572Y-93406571D01*
X125221572Y-93620857D01*
X125150143Y-93763714D01*
X125078715Y-93835143D01*
X124935857Y-93906571D01*
X124364429Y-93906571D01*
X124364429Y-92406571D01*
X124864429Y-92406571D01*
X125007286Y-92478000D01*
X125078715Y-92549429D01*
X125150143Y-92692286D01*
X125150143Y-92835143D01*
X125078715Y-92978000D01*
X125007286Y-93049429D01*
X124864429Y-93120857D01*
X124364429Y-93120857D01*
X126435857Y-93835143D02*
X126293000Y-93906571D01*
X126007286Y-93906571D01*
X125864429Y-93835143D01*
X125793000Y-93692286D01*
X125793000Y-93120857D01*
X125864429Y-92978000D01*
X126007286Y-92906571D01*
X126293000Y-92906571D01*
X126435857Y-92978000D01*
X126507286Y-93120857D01*
X126507286Y-93263714D01*
X125793000Y-93406571D01*
X127150143Y-93906571D02*
X127150143Y-92906571D01*
X127150143Y-93192286D02*
X127221571Y-93049429D01*
X127293000Y-92978000D01*
X127435857Y-92906571D01*
X127578714Y-92906571D01*
X127864428Y-92906571D02*
X128435857Y-92906571D01*
X128078714Y-92406571D02*
X128078714Y-93692286D01*
X128150142Y-93835143D01*
X128293000Y-93906571D01*
X128435857Y-93906571D01*
X128935857Y-93906571D02*
X128935857Y-92906571D01*
X128935857Y-93192286D02*
X129007285Y-93049429D01*
X129078714Y-92978000D01*
X129221571Y-92906571D01*
X129364428Y-92906571D01*
X130507285Y-93906571D02*
X130507285Y-93120857D01*
X130435856Y-92978000D01*
X130292999Y-92906571D01*
X130007285Y-92906571D01*
X129864428Y-92978000D01*
X130507285Y-93835143D02*
X130364428Y-93906571D01*
X130007285Y-93906571D01*
X129864428Y-93835143D01*
X129792999Y-93692286D01*
X129792999Y-93549429D01*
X129864428Y-93406571D01*
X130007285Y-93335143D01*
X130364428Y-93335143D01*
X130507285Y-93263714D01*
X131221571Y-92906571D02*
X131221571Y-93906571D01*
X131221571Y-93049429D02*
X131292999Y-92978000D01*
X131435857Y-92906571D01*
X131650142Y-92906571D01*
X131792999Y-92978000D01*
X131864428Y-93120857D01*
X131864428Y-93906571D01*
X133221571Y-93906571D02*
X133221571Y-92406571D01*
X133221571Y-93835143D02*
X133078714Y-93906571D01*
X132793000Y-93906571D01*
X132650142Y-93835143D01*
X132578714Y-93763714D01*
X132507285Y-93620857D01*
X132507285Y-93192286D01*
X132578714Y-93049429D01*
X132650142Y-92978000D01*
X132793000Y-92906571D01*
X133078714Y-92906571D01*
X133221571Y-92978000D01*
M02*
