G04 #@! TF.FileFunction,Paste,Bot*
%FSLAX46Y46*%
G04 Gerber Fmt 4.6, Leading zero omitted, Abs format (unit mm)*
G04 Created by KiCad (PCBNEW 4.0.7) date Friday 03 August 2018 17:47:43*
%MOMM*%
%LPD*%
G01*
G04 APERTURE LIST*
%ADD10C,0.100000*%
%ADD11R,2.000000X4.000000*%
G04 APERTURE END LIST*
D10*
D11*
X125476000Y-79188000D03*
X121946000Y-103148000D03*
X125476000Y-103148000D03*
M02*
