G04 #@! TF.FileFunction,Soldermask,Top*
%FSLAX46Y46*%
G04 Gerber Fmt 4.6, Leading zero omitted, Abs format (unit mm)*
G04 Created by KiCad (PCBNEW 4.0.7) date Friday 03 August 2018 17:47:43*
%MOMM*%
%LPD*%
G01*
G04 APERTURE LIST*
%ADD10C,0.100000*%
%ADD11C,2.200000*%
%ADD12C,1.800000*%
%ADD13C,2.100000*%
%ADD14O,2.100000X2.100000*%
%ADD15C,3.400000*%
%ADD16O,1.470000X2.200000*%
%ADD17R,1.470000X2.200000*%
%ADD18R,2.100000X2.100000*%
%ADD19O,1.800000X1.800000*%
G04 APERTURE END LIST*
D10*
D11*
X150876000Y-80518000D03*
X148336000Y-80518000D03*
X145796000Y-80518000D03*
X143256000Y-80518000D03*
X140716000Y-80518000D03*
X138176000Y-80518000D03*
X135636000Y-80518000D03*
X133096000Y-80518000D03*
X133096000Y-103378000D03*
X135636000Y-103378000D03*
X138176000Y-103378000D03*
X140716000Y-103378000D03*
X143256000Y-103378000D03*
X145796000Y-103378000D03*
X148336000Y-103378000D03*
X150876000Y-103378000D03*
D12*
X144780000Y-74676000D03*
D13*
X144780000Y-72136000D03*
D14*
X147320000Y-72136000D03*
X149860000Y-72136000D03*
X152400000Y-72136000D03*
X154940000Y-72136000D03*
X157480000Y-72136000D03*
X160020000Y-72136000D03*
D15*
X162684440Y-105549680D03*
X118447840Y-69298840D03*
D16*
X134112000Y-72136000D03*
D17*
X135382000Y-72136000D03*
D16*
X136652000Y-72136000D03*
X137922000Y-72136000D03*
D18*
X125476000Y-74676000D03*
D14*
X128016000Y-74676000D03*
X130556000Y-74676000D03*
D12*
X135636000Y-74676000D03*
D19*
X135636000Y-77216000D03*
D12*
X138176000Y-74676000D03*
D19*
X138176000Y-77216000D03*
D12*
X140716000Y-74676000D03*
D19*
X140716000Y-77216000D03*
D12*
X154940000Y-74676000D03*
X154940000Y-77216000D03*
X144780000Y-77216000D03*
X147320000Y-77216000D03*
X147320000Y-74676000D03*
X149860000Y-74676000D03*
X149860000Y-77216000D03*
X152400000Y-77216000D03*
X152400000Y-74676000D03*
D18*
X120904000Y-75692000D03*
D14*
X120904000Y-78232000D03*
M02*
