<?xml version="1.0" encoding="UTF-8" standalone="no"?>
<!-- Created with Inkscape (http://www.inkscape.org/) -->

<svg
   xmlns:dc="http://purl.org/dc/elements/1.1/"
   xmlns:cc="http://creativecommons.org/ns#"
   xmlns:rdf="http://www.w3.org/1999/02/22-rdf-syntax-ns#"
   xmlns:svg="http://www.w3.org/2000/svg"
   xmlns="http://www.w3.org/2000/svg"
   xmlns:sodipodi="http://sodipodi.sourceforge.net/DTD/sodipodi-0.dtd"
   xmlns:inkscape="http://www.inkscape.org/namespaces/inkscape"
   version="1.1"
   id="svg7483"
   xml:space="preserve"
   width="1511.8134"
   height="1133.8533"
   viewBox="0 0 1511.8134 1133.8533"
   sodipodi:docname="EMI_CUBE_Step4-cut1.svg"
   inkscape:version="0.92.1 r15371"><metadata
     id="metadata7489"><rdf:RDF><cc:Work
         rdf:about=""><dc:format>image/svg+xml</dc:format><dc:type
           rdf:resource="http://purl.org/dc/dcmitype/StillImage" /><dc:title></dc:title></cc:Work></rdf:RDF></metadata><defs
     id="defs7487"><clipPath
       clipPathUnits="userSpaceOnUse"
       id="clipPath7513"><path
         d="M 0,850.39 H 1133.86 V 0 H 0 Z"
         id="path7511"
         inkscape:connector-curvature="0" /></clipPath></defs><sodipodi:namedview
     pagecolor="#ffffff"
     bordercolor="#666666"
     borderopacity="1"
     objecttolerance="10"
     gridtolerance="10"
     guidetolerance="10"
     inkscape:pageopacity="0"
     inkscape:pageshadow="2"
     inkscape:window-width="1920"
     inkscape:window-height="1129"
     id="namedview7485"
     showgrid="false"
     inkscape:zoom="0.41627961"
     inkscape:cx="554.65774"
     inkscape:cy="361.16407"
     inkscape:window-x="1680"
     inkscape:window-y="34"
     inkscape:window-maximized="1"
     inkscape:current-layer="g7491" /><g
     id="g7491"
     inkscape:groupmode="layer"
     inkscape:label="EMI_CUBE_Step3-cut"
     transform="matrix(1.3333333,0,0,-1.3333333,0,1133.8533)"><path
       inkscape:connector-curvature="0"
       id="path7495"
       style="fill:none;stroke:#040606;stroke-width:0.28346458;stroke-linecap:butt;stroke-linejoin:miter;stroke-miterlimit:4;stroke-dasharray:none;stroke-opacity:1"
       d="m 894.8157,753.5897 h 35.15 v 8.504 h 43.653 v -8.504 h 43.654 v 8.504 h 43.653 v -8.504 h 35.15 v -35.15 h 8.504 v -43.653 h -8.504 v -43.654 h 8.504 v -43.653 h -8.504 v -35.15 h -35.15 v -8.504 h -43.653 v 8.504 h -43.654 v -8.504 h -43.653 v 8.504 h -35.15 v 35.15 h -8.504 v 43.653 h 8.504 v 43.654 h -8.504 v 43.653 h 8.504 z" /><path
       d="m 991.478,584.64 h -39.376 v 27.74 h 39.376 z"
       style="fill:none;stroke:#040606;stroke-width:0.28346458;stroke-linecap:butt;stroke-linejoin:miter;stroke-miterlimit:4;stroke-dasharray:none;stroke-opacity:1"
       id="path7497"
       inkscape:connector-curvature="0" /><path
       inkscape:connector-curvature="0"
       id="path7501"
       style="fill:none;stroke:#040606;stroke-width:0.28346458;stroke-linecap:butt;stroke-linejoin:miter;stroke-miterlimit:4;stroke-dasharray:none;stroke-opacity:1"
       d="m 247.5532,757.8416 h 35.15 130.96 35.15 v -41.953 h 8.504 v -41.953 h -8.504 v -41.952 h 8.504 v -41.953 h -8.504 v -41.953 h -35.15 v 8.504 h -43.653 v -8.504 h -43.654 v 8.504 h -43.653 v -8.504 h -35.15" /><path
       inkscape:connector-curvature="0"
       id="path7505"
       style="fill:none;stroke:#040606;stroke-width:0.28346458;stroke-linecap:butt;stroke-linejoin:miter;stroke-miterlimit:4;stroke-dasharray:none;stroke-opacity:1"
       d="m 203.8947,757.8416 h 43.654 v -41.953 h -8.504 v -41.953 h 8.504 v -41.952 h -8.504 v -41.953 h 8.504 v -41.953 h -43.654 v 8.504 h -43.654 v -8.504 h -43.653 v 8.504 h -43.654 v -8.504 h -43.653 v 41.953 h 8.504 v 41.953 h -8.504 v 41.952 h 8.504 v 41.953 h -8.504 v 41.953 h 43.653 z" /><path
       inkscape:connector-curvature="0"
       id="path7517"
       style="fill:none;stroke:#040606;stroke-width:0.28346458;stroke-linecap:butt;stroke-linejoin:miter;stroke-miterlimit:4;stroke-dasharray:none;stroke-opacity:1"
       d="m 59.0419,654.3713 h -8.504 v 51.024 h 8.504 v -14.512 c 6.075,0 11,-4.925 11,-11 0,-6.075 -4.925,-11 -11,-11 z" /><path
       inkscape:connector-curvature="0"
       id="path7521"
       style="fill:none;stroke:#040606;stroke-width:0.28346458;stroke-linecap:butt;stroke-linejoin:miter;stroke-miterlimit:4;stroke-dasharray:none;stroke-opacity:1"
       d="m 217.7821,654.3713 h 8.504 v 51.024 h -8.504 v -14.512 c -6.075,0 -11,-4.925 -11,-11 0,-6.075 4.925,-11 11,-11 z" /><path
       inkscape:connector-curvature="0"
       id="path7525"
       style="fill:none;stroke:#040606;stroke-width:0.28346458;stroke-linecap:butt;stroke-linejoin:miter;stroke-miterlimit:4;stroke-dasharray:none;stroke-opacity:1"
       d="m 667.0868,757.8416 h 35.15 130.96 35.15 v -41.953 h 8.504 v -41.953 h -8.504 v -41.952 h 8.504 v -41.953 h -8.504 v -41.953 h -35.15 v 8.504 h -43.653 v -8.504 h -43.654 v 8.504 h -43.653 v -8.504 h -35.15" /><path
       inkscape:connector-curvature="0"
       id="path7529"
       style="fill:none;stroke:#040606;stroke-width:0.28346458;stroke-linecap:butt;stroke-linejoin:miter;stroke-miterlimit:4;stroke-dasharray:none;stroke-opacity:1"
       d="m 448.8141,757.8416 h 43.654 130.96 43.654 v -41.953 h -8.504 v -41.953 h 8.504 v -41.952 h -8.504 v -41.953 h 8.504 v -41.953 h -43.654 v 8.504 h -43.653 v -8.504 h -43.654 v 8.504 h -43.653 v -8.504 h -43.654" /><path
       inkscape:connector-curvature="0"
       id="path7533"
       style="fill:none;stroke:#040606;stroke-width:0.28346458;stroke-linecap:butt;stroke-linejoin:miter;stroke-miterlimit:4;stroke-dasharray:none;stroke-opacity:1"
       d="m 478.5755,654.3713 h -8.504 v 51.024 h 8.504 v -14.512 c 6.075,0 11,-4.925 11,-11 0,-6.075 -4.925,-11 -11,-11 z" /><path
       inkscape:connector-curvature="0"
       id="path7537"
       style="fill:none;stroke:#040606;stroke-width:0.28346458;stroke-linecap:butt;stroke-linejoin:miter;stroke-miterlimit:4;stroke-dasharray:none;stroke-opacity:1"
       d="m 637.3156,654.3713 h 8.504 v 51.024 h -8.504 v -14.512 c -6.075,0 -11,-4.925 -11,-11 0,-6.075 4.925,-11 11,-11 z" /><path
       inkscape:connector-curvature="0"
       id="path7541"
       style="fill:none;stroke:#040606;stroke-width:0.28346458;stroke-linecap:butt;stroke-linejoin:miter;stroke-miterlimit:4;stroke-dasharray:none;stroke-opacity:1"
       d="m 1060.9259,543.8259 v -8.504 h 35.15 v -35.15 h 8.504 v -43.653 h -8.504 v -43.654 h 8.504 v -43.653 h -8.504 v -35.15 h -35.15 v -8.504 h -43.654 v 8.504 h -43.653 v -8.504 h -43.654 v 8.504 h -35.149 v 35.15 h -8.504 v 43.653 h 8.504 v 43.654 h -8.504 v 43.653 h 8.504 v 35.15 h 35.149 v 8.504" /><path
       inkscape:connector-curvature="0"
       id="path7545"
       style="fill:none;stroke:#040606;stroke-width:0.28346458;stroke-linecap:butt;stroke-linejoin:miter;stroke-miterlimit:4;stroke-dasharray:none;stroke-opacity:1"
       d="m 973.6188,543.8259 v -8.504 h 43.654 v 8.504" /><path
       d="m 991.478,366.372 h -39.376 v 27.74 h 39.376 z"
       style="fill:none;stroke:#040606;stroke-width:0.28346458;stroke-linecap:butt;stroke-linejoin:miter;stroke-miterlimit:4;stroke-dasharray:none;stroke-opacity:1"
       id="path7547"
       inkscape:connector-curvature="0" /><path
       inkscape:connector-curvature="0"
       id="path7551"
       style="fill:none;stroke:#040606;stroke-width:0.28346458;stroke-linecap:butt;stroke-linejoin:miter;stroke-miterlimit:4;stroke-dasharray:none;stroke-opacity:1"
       d="m 247.5532,539.5739 h 35.15 130.96 35.15 v -41.953 h 8.504 v -41.953 h -8.504 v -41.952 h 8.504 v -41.953 h -8.504 v -41.953 h -35.15 v 8.504 h -43.653 v -8.504 h -43.654 v 8.504 h -43.653 v -8.504 h -35.15" /><path
       inkscape:connector-curvature="0"
       id="path7555"
       style="fill:none;stroke:#040606;stroke-width:0.28346458;stroke-linecap:butt;stroke-linejoin:miter;stroke-miterlimit:4;stroke-dasharray:none;stroke-opacity:1"
       d="m 203.8947,539.5739 h 43.654 v -41.953 h -8.504 v -41.953 h 8.504 v -41.952 h -8.504 v -41.953 h 8.504 v -41.953 h -43.654 v 8.504 h -43.654 v -8.504 h -43.653 v 8.504 h -43.654 v -8.504 h -43.653 v 41.953 h 8.504 v 41.953 h -8.504 v 41.952 h 8.504 v 41.953 h -8.504 v 41.953 h 43.653 z" /><path
       inkscape:connector-curvature="0"
       id="path7559"
       style="fill:none;stroke:#040606;stroke-width:0.28346458;stroke-linecap:butt;stroke-linejoin:miter;stroke-miterlimit:4;stroke-dasharray:none;stroke-opacity:1"
       d="m 59.0419,436.1035 h -8.504 v 51.024 h 8.504 v -14.512 c 6.075,0 11,-4.925 11,-11 0,-6.075 -4.925,-11 -11,-11 z" /><path
       inkscape:connector-curvature="0"
       id="path7563"
       style="fill:none;stroke:#040606;stroke-width:0.28346458;stroke-linecap:butt;stroke-linejoin:miter;stroke-miterlimit:4;stroke-dasharray:none;stroke-opacity:1"
       d="m 217.7821,436.1035 h 8.504 v 51.024 h -8.504 v -14.512 c -6.075,0 -11,-4.925 -11,-11 0,-6.075 4.925,-11 11,-11 z" /><path
       inkscape:connector-curvature="0"
       id="path7567"
       style="fill:none;stroke:#040606;stroke-width:0.28346458;stroke-linecap:butt;stroke-linejoin:miter;stroke-miterlimit:4;stroke-dasharray:none;stroke-opacity:1"
       d="m 667.0868,539.5739 h 35.15 130.96 35.15 v -41.953 h 8.504 v -41.953 h -8.504 v -41.952 h 8.504 v -41.953 h -8.504 v -41.953 h -35.15 v 8.504 h -43.653 v -8.504 h -43.654 v 8.504 h -43.653 v -8.504 h -35.15" /><path
       inkscape:connector-curvature="0"
       id="path7571"
       style="fill:none;stroke:#040606;stroke-width:0.28346458;stroke-linecap:butt;stroke-linejoin:miter;stroke-miterlimit:4;stroke-dasharray:none;stroke-opacity:1"
       d="m 448.8141,539.5739 h 43.654 130.96 43.654 v -41.953 h -8.504 v -41.953 h 8.504 v -41.952 h -8.504 v -41.953 h 8.504 v -41.953 h -43.654 v 8.504 h -43.653 v -8.504 h -43.654 v 8.504 h -43.653 v -8.504 h -43.654" /><path
       inkscape:connector-curvature="0"
       id="path7575"
       style="fill:none;stroke:#040606;stroke-width:0.28346458;stroke-linecap:butt;stroke-linejoin:miter;stroke-miterlimit:4;stroke-dasharray:none;stroke-opacity:1"
       d="m 478.5755,436.1035 h -8.504 v 51.024 h 8.504 v -14.512 c 6.075,0 11,-4.925 11,-11 0,-6.075 -4.925,-11 -11,-11 z" /><path
       inkscape:connector-curvature="0"
       id="path7579"
       style="fill:none;stroke:#040606;stroke-width:0.28346458;stroke-linecap:butt;stroke-linejoin:miter;stroke-miterlimit:4;stroke-dasharray:none;stroke-opacity:1"
       d="m 637.3156,436.1035 h 8.504 v 51.024 h -8.504 v -14.512 c -6.075,0 -11,-4.925 -11,-11 0,-6.075 4.925,-11 11,-11 z" /><path
       inkscape:connector-curvature="0"
       id="path7583"
       style="fill:none;stroke:#040606;stroke-width:0.28346458;stroke-linecap:butt;stroke-linejoin:miter;stroke-miterlimit:4;stroke-dasharray:none;stroke-opacity:1"
       d="m 1060.9259,325.5582 v -8.504 h 35.15 v -35.15 h 8.504 v -43.653 h -8.504 v -43.654 h 8.504 v -43.653 h -8.504 v -35.15 h -35.15 v -8.504 h -43.654 v 8.504 h -43.653 v -8.504 h -43.654 v 8.504 h -35.149 v 35.15 h -8.504 v 43.653 h 8.504 v 43.654 h -8.504 v 43.653 h 8.504 v 35.15 h 35.149 v 8.504" /><path
       inkscape:connector-curvature="0"
       id="path7587"
       style="fill:none;stroke:#040606;stroke-width:0.28346458;stroke-linecap:butt;stroke-linejoin:miter;stroke-miterlimit:4;stroke-dasharray:none;stroke-opacity:1"
       d="m 973.6188,325.5582 v -8.504 h 43.654 v 8.504" /><path
       d="m 991.478,148.104 h -39.376 v 27.74 h 39.376 z"
       style="fill:none;stroke:#040606;stroke-width:0.28346458;stroke-linecap:butt;stroke-linejoin:miter;stroke-miterlimit:4;stroke-dasharray:none;stroke-opacity:1"
       id="path7589"
       inkscape:connector-curvature="0" /><path
       inkscape:connector-curvature="0"
       id="path7593"
       style="fill:none;stroke:#040606;stroke-width:0.28346458;stroke-linecap:butt;stroke-linejoin:miter;stroke-miterlimit:4;stroke-dasharray:none;stroke-opacity:1"
       d="m 247.5532,321.3062 h 35.15 130.96 35.15 v -41.953 h 8.504 v -41.953 h -8.504 v -41.952 h 8.504 v -41.953 h -8.504 v -41.953 h -35.15 v 8.504 h -43.653 v -8.504 h -43.654 v 8.504 h -43.653 v -8.504 h -35.15" /><path
       inkscape:connector-curvature="0"
       id="path7597"
       style="fill:none;stroke:#040606;stroke-width:0.28346458;stroke-linecap:butt;stroke-linejoin:miter;stroke-miterlimit:4;stroke-dasharray:none;stroke-opacity:1"
       d="m 203.8947,321.3062 h 43.654 v -41.953 h -8.504 v -41.953 h 8.504 v -41.952 h -8.504 v -41.953 h 8.504 v -41.953 h -43.654 v 8.504 h -43.654 v -8.504 h -43.653 v 8.504 h -43.654 v -8.504 h -43.653 v 41.953 h 8.504 v 41.953 h -8.504 v 41.952 h 8.504 v 41.953 h -8.504 v 41.953 h 43.653 z" /><path
       inkscape:connector-curvature="0"
       id="path7601"
       style="fill:none;stroke:#040606;stroke-width:0.28346458;stroke-linecap:butt;stroke-linejoin:miter;stroke-miterlimit:4;stroke-dasharray:none;stroke-opacity:1"
       d="m 59.0419,217.8358 h -8.504 v 51.024 h 8.504 v -14.512 c 6.075,0 11,-4.925 11,-11 0,-6.075 -4.925,-11 -11,-11 z" /><path
       inkscape:connector-curvature="0"
       id="path7605"
       style="fill:none;stroke:#040606;stroke-width:0.28346458;stroke-linecap:butt;stroke-linejoin:miter;stroke-miterlimit:4;stroke-dasharray:none;stroke-opacity:1"
       d="m 217.7821,217.8358 h 8.504 v 51.024 h -8.504 v -14.512 c -6.075,0 -11,-4.925 -11,-11 0,-6.075 4.925,-11 11,-11 z" /><path
       inkscape:connector-curvature="0"
       id="path7609"
       style="fill:none;stroke:#040606;stroke-width:0.28346458;stroke-linecap:butt;stroke-linejoin:miter;stroke-miterlimit:4;stroke-dasharray:none;stroke-opacity:1"
       d="m 667.0868,321.3062 h 35.15 130.96 35.15 v -41.953 h 8.504 v -41.953 h -8.504 v -41.952 h 8.504 v -41.953 h -8.504 v -41.953 h -35.15 v 8.504 h -43.653 v -8.504 h -43.654 v 8.504 h -43.653 v -8.504 h -35.15" /><path
       inkscape:connector-curvature="0"
       id="path7613"
       style="fill:none;stroke:#040606;stroke-width:0.28346458;stroke-linecap:butt;stroke-linejoin:miter;stroke-miterlimit:4;stroke-dasharray:none;stroke-opacity:1"
       d="m 448.8141,321.3062 h 43.654 130.96 43.654 v -41.953 h -8.504 v -41.953 h 8.504 v -41.952 h -8.504 v -41.953 h 8.504 v -41.953 h -43.654 v 8.504 h -43.653 v -8.504 h -43.654 v 8.504 h -43.653 v -8.504 h -43.654" /><path
       inkscape:connector-curvature="0"
       id="path7617"
       style="fill:none;stroke:#040606;stroke-width:0.28346458;stroke-linecap:butt;stroke-linejoin:miter;stroke-miterlimit:4;stroke-dasharray:none;stroke-opacity:1"
       d="m 478.5755,217.8358 h -8.504 v 51.024 h 8.504 v -14.512 c 6.075,0 11,-4.925 11,-11 0,-6.075 -4.925,-11 -11,-11 z" /><path
       inkscape:connector-curvature="0"
       id="path7621"
       style="fill:none;stroke:#040606;stroke-width:0.28346458;stroke-linecap:butt;stroke-linejoin:miter;stroke-miterlimit:4;stroke-dasharray:none;stroke-opacity:1"
       d="m 637.3156,217.8358 h 8.504 v 51.024 h -8.504 v -14.512 c -6.075,0 -11,-4.925 -11,-11 0,-6.075 4.925,-11 11,-11 z" /></g></svg>